0,1,2,3,4,5,6,7,8,9,10,11,12,13,14,15,16,17,18,19,20,21,22,23,24,25,26,27,28,29,30,31,32,33,34,35,36,37,38,39,40,41,42,43,44,45,46,47,48,49,50,51,52,53,54,55,56,57,58,59,60,61,62,63,64,65,66,67,68,69,70,71,72,73,74,75,76,77,78,79,80,81,82,83,84,85,86,87,88,89,90,91,92,93,94,95,96,97,98,99,100,101,102,103,104,105,106,107,108,109,110,111,112,113,114,115,116,117,118,119,120,121,122,123,124,125,126,127,128,129,130,131,132,133,134,135,136,137,138,139,140,141,142,143,144,145,146,147,148,149,150,151,152,153,154,155,156,157,158,159,160,161,162,163,164,165,166,167,168,169,170,171,172,173,174,175,176,177,178,179,180,181,182,183,184,185,186,187,188,189,190,191,192,193,194,195,196,197,198,199,200,201,202,203,204,205,206,207,208,209,210,211,212,213,214,215,216,217,218,219,220,221,222,223,224,225,226,227,228,229,230,231,232,233,234,235,236,237,238,239,240,241,242,243,244,245,246,247,248,249,250,251,252,253,254,255
0.012782969,0.0004941702,0.004555402,0.0,0.048308887,0.03201663,0.0,0.004256551,0.0,0.16048348,0.04790367,0.013869647,0.037943415,0.039581418,0.049697153,0.0,0.035140507,0.02220507,0.0425758,0.0,0.00464414,0.042059563,0.012140347,0.0,0.0,0.0005180435,6.516557e-05,0.04036819,0.0,0.0,0.10074428,0.026958823,0.010956111,0.023895934,0.0028332132,0.0703807,0.008492838,0.014777103,0.005493575,0.0,0.014319303,0.020048233,0.048322458,0.012701469,0.031261757,0.004866518,0.0,0.040159006,0.019905128,0.0021033809,0.0,0.005251143,0.035791323,0.0,0.0070531964,0.04425681,0.04381319,0.0,0.00362649,0.0,0.039497644,0.017372612,0.0068857362,0.0,0.0,0.0,0.061333917,0.034769777,0.0008221669,0.0,0.008147326,0.028654112,0.010902943,0.018316787,0.029115427,0.0,0.0,0.0,0.018394992,0.02031374,0.061261564,0.0,0.083806664,0.024092099,0.0088697905,0.03991062,0.051808596,0.016048737,0.0005528354,0.0027365813,0.033821166,0.0,0.001397686,0.0,0.04325617,0.0,0.019332469,0.0,0.0,0.03492022,0.095107965,0.0,0.02760119,0.0011593743,0.0075812936,0.035878975,0.0024242597,0.0,0.015617795,0.029432043,0.0,0.04062267,0.054645382,0.06533596,0.06408641,0.0,0.0688742,0.0,0.016801853,0.0103191985,0.063283905,0.034065776,0.08595705,0.005134627,0.0,0.15722966,0.007203657,0.11570403,0.019207373,0.004411619,0.015023962,0.0,0.0,0.10900898,0.05121467,0.012308614,0.0044286344,0.0,0.018414922,0.0,0.0,0.0,0.009382433,0.0,0.091467045,0.0,0.07634778,0.0,0.023211092,0.013946645,0.059338875,0.07509179,0.0,0.0,0.001495135,0.039818317,0.055856105,0.0332701,0.0034456737,0.0473193,0.081327535,0.0,0.05471341,0.013993798,0.007848995,0.03759877,0.01565864,0.06089607,0.030654717,0.025222257,0.0,0.03261587,0.0,0.00055257045,0.045264743,0.006830716,0.0093644215,0.05541055,0.018456554,0.025539773,0.030796874,0.0048323944,0.008049384,0.028212294,0.0,0.0,0.0069600567,0.02256684,0.0,0.15135556,0.027611926,0.011944803,0.04564624,0.023505904,0.0,2.8554583e-05,0.0,0.004556313,0.06038773,0.081084035,0.053671405,0.09764318,0.014175593,0.036174126,0.0,0.031316236,0.012459157,0.022878475,0.01265194,0.0039877538,0.002019522,0.00030495104,0.059582718,0.037493676,0.0,0.02386411,0.0,0.016442092,0.041168705,0.01934554,0.019510634,0.0,0.009001549,0.0,0.085410886,0.055927463,0.026131805,0.022064961,0.0,0.03341248,0.04603212,0.0,0.0004824718,0.0,0.0,0.06769546,0.051794793,0.004980142,0.09772181,0.176399,0.017643385,0.006701879,0.0,0.06790911,0.070423424,0.044888053,0.03332662,0.0,0.017001972,0.036523826,0.0,0.053336844,0.026533384,0.0,0.0,0.0010303914
0.16376746,0.0004941702,0.004555402,0.0,0.052690256,0.03201663,0.0,0.03892278,0.0,0.119026035,0.054631755,0.030082434,0.0034950897,0.024263974,0.046215445,0.0,0.044968598,0.05451431,0.012784123,0.0,0.09290637,0.032307178,0.012140347,0.0,0.0,0.02035077,0.0076810466,0.083367325,0.0,0.0,0.015898973,0.054997355,0.010956111,0.05637067,0.0,0.01617127,0.0065843062,0.018579677,0.0,0.0,0.014319303,0.0006181537,0.048322458,0.025006006,0.045738257,0.026022658,0.0,0.042463273,0.04029724,0.09894229,0.0,0.0,0.040937077,0.0,0.04178241,0.06931875,0.053784423,0.0,0.00027959235,0.0,0.018056864,0.017372612,0.0068857362,0.0,0.0,0.0,0.011233896,0.047540113,0.0097881695,0.0,0.025475316,0.016936958,0.010902943,0.03411095,0.029115427,0.0,0.0,0.0,0.068754405,0.07808961,0.076375306,0.0,0.017767414,0.024092099,0.0088697905,0.03991062,0.051808596,0.07323485,0.0005528354,0.0060164668,0.033821166,0.0,0.001397686,0.0,0.07924192,0.0,0.0017541758,0.0,0.0,0.03492022,0.095107965,0.0,0.010388523,0.0011593743,0.01906354,0.035878975,0.0024242597,0.0,0.010662502,0.058363255,0.0,0.04062267,0.047491066,0.0042800605,0.076911606,0.0,0.03262745,0.0,0.016801853,0.065326326,0.012609132,0.009312394,0.098478466,0.054323856,0.0,0.05291727,5.5335462e-05,0.009391427,0.06041866,0.004411619,0.012979843,0.0,0.0,0.144621,0.049681343,0.015192159,0.011792347,0.0,0.018414922,0.0,0.0,0.0,0.0,0.0,0.044430155,0.0,0.038214132,0.0,0.09007366,0.13623524,0.00016037375,0.053476073,0.0,0.0,0.0053755017,0.042183343,0.055856105,0.016745247,0.12380921,0.114268824,0.02813927,0.0,0.05471341,0.014635694,0.010037068,0.03759877,0.01565864,0.006313294,0.041196436,0.0038596913,0.0,0.05351048,0.0,0.015776983,0.045264743,0.004496462,0.0,0.070027955,0.02205229,0.025539773,0.046384912,0.0,0.006395491,0.010951802,0.0,0.0,0.0014419034,0.01772749,0.0,0.020754986,0.014113046,0.05084806,0.047703616,0.03919094,0.0,0.00132265,0.0,0.032842755,0.0024003237,0.081084035,0.08481172,0.069457926,0.0,0.036174126,0.0,0.059072986,0.0029294146,0.0,0.01265194,0.0,0.0,0.00030495104,0.032295614,0.05104152,0.0,0.06571875,0.0,0.016442092,0.03114894,0.01934554,0.011729568,0.0,0.012579596,0.0,0.037653722,0.055927463,0.0077973753,0.06421129,0.0,0.03341248,0.012801237,0.0,0.0004824718,0.0,0.0,0.00039571524,0.05299335,0.004980142,0.07352444,0.12453051,0.013909325,0.008932732,0.0,0.22326538,0.077225536,0.06465881,0.015088577,0.0,0.019453272,0.07330822,0.0,0.053336844,0.056414086,0.0,0.0,0.0010303914
0.0,0.0,0.0,0.0,0.06263746,0.0,0.0,0.0728093,0.0,0.22327869,0.034862135,0.008321885,0.065262854,0.0,0.13365237,0.0,0.0,0.004807852,0.0029591615,0.0,0.0,0.046968818,0.0,0.0,0.0,0.0,0.012950361,0.02677676,0.0,0.026810637,0.08470675,0.09224338,0.0,0.006945778,0.0,0.03546457,0.025104651,0.0,0.0,0.0,0.0,0.007941562,0.020491537,0.0,0.06325809,0.10516378,0.0,0.04868459,0.01583235,0.049411967,0.0,0.0,0.053689092,0.0,0.0010268241,0.0019382504,0.0,0.0,0.021258496,0.0,0.049313445,0.0,0.0,0.0,0.019869993,0.0,0.13505715,0.054348484,0.034136597,0.024064815,0.0,0.00028432906,0.0,0.0,0.07937081,0.0,0.0,0.011645494,0.0034942478,0.0032042414,0.056721535,0.0,0.048074674,0.038461093,0.06208922,0.0,0.0,0.038811296,0.019380527,0.0,0.013357,0.0,0.0,0.012973179,0.06791158,0.0,0.000101990394,0.0,0.0,0.0,0.022314953,0.0,0.010042757,0.0,0.0066963434,0.0074549615,0.0,0.0,0.018863123,0.03996761,0.0,0.0,0.0,0.14104882,0.110631496,0.0,0.105751656,0.0,0.0,0.014443218,0.07717796,0.04680829,0.058567196,0.10642458,0.0,0.11781826,0.034155987,0.007849563,0.010918888,0.0,0.018364824,0.0,0.0,0.06655017,0.0,0.0,0.07243828,0.06810578,0.0,0.0,0.0,0.04561045,0.0,0.0,0.048596907,0.0,0.083481506,0.014603796,0.08768496,0.0,0.04342446,0.08636256,0.0,0.0,0.028742123,0.05651594,0.0,0.068717875,0.067158565,0.04100252,0.030666813,0.0,0.0,0.09028592,0.03901808,0.06600954,0.0,0.0034104586,0.04830231,0.09663212,0.0,0.019832632,0.0,0.0,0.0,0.0,0.017970275,0.11893603,0.016177207,0.0,0.020781815,0.0,0.011065404,0.003199978,0.0,0.0,0.045019623,0.023591021,0.0,0.10917003,0.064289674,0.033004045,0.042333845,0.0007756166,0.0,0.031894024,0.0,0.14452459,0.0017262995,0.008627443,0.0,0.06802207,0.007973238,0.0535339,0.0,0.17662393,0.0,0.04416525,0.0,0.0,0.0,0.0,0.009959772,0.016912997,0.014911742,0.05822595,0.0,0.0,0.08295007,0.0,0.04295841,0.0,0.010261636,0.0,0.0,0.034395244,0.041534614,0.037875175,0.0,0.0,0.08178179,0.0,0.0,0.0,0.0,0.019206256,0.036392476,0.0,0.14293446,0.14633994,0.10676054,0.044625096,0.0,0.0071368213,0.009175125,0.07093905,0.048161868,0.0,0.022584476,0.012015745,0.0,0.042460334,0.113578275,0.0,0.0,0.0
0.03431959,0.0004941702,0.004555402,0.0,0.0066064633,0.03201663,0.0,0.06518297,0.0,0.15854254,0.054631755,0.004951708,0.06955126,0.03971224,0.05964617,0.0,0.053684175,0.026585072,0.057634182,0.0,0.0037484267,0.035318002,0.012140347,0.0,0.0,0.008049202,0.005269314,0.056590565,0.0,0.026810637,0.112403885,0.05184277,0.010956111,0.049424894,0.0,0.03927988,0.016611814,0.018579677,0.0,0.0,0.014319303,0.007323408,0.048322458,0.024442432,0.045738257,0.037465096,0.0,0.032378867,0.066286504,0.018065922,0.0,0.0,0.040937077,0.0,0.079797976,0.067380495,0.035990722,0.0,0.024829099,0.0,0.03125658,0.017372612,0.0068857362,0.0,0.019869993,0.0,0.007632017,0.0067765117,0.024348427,0.0,0.012805331,0.001716448,0.010902943,0.06016832,0.007632168,0.0,0.0,0.0,0.024160586,0.0019157827,0.04209665,0.0,0.0640738,0.014368994,0.0088697905,0.03991062,0.051808596,0.062438555,0.018827692,0.0027365813,0.033821166,0.0,0.001397686,0.012973179,0.06026423,0.0,0.0016521853,0.0,0.0,0.03492022,0.052575633,0.0,0.06657717,0.0011593743,0.007123247,0.029586855,0.0024242597,0.0,0.026721675,0.039722703,0.0,0.04062267,0.028364966,0.10707432,0.07695176,0.0,0.050365128,0.0,0.016801853,0.0054417104,0.08550617,0.037495896,0.077508956,0.03140127,0.0,0.05791354,0.027142245,0.09867489,0.06276542,0.004411619,0.017454445,0.0,0.0,0.07808345,0.05121467,0.015192159,0.04542713,0.06810578,0.018414922,0.0,0.0,0.04561045,0.0,0.0,0.016336173,0.0,0.10816702,0.014603796,0.046241768,0.045465272,0.022413567,0.07655345,0.0,0.0,0.0053755017,0.03332997,0.055856105,0.028117552,0.033100046,0.07243987,0.04568892,0.0,0.05471341,0.014635694,0.02133425,0.03733943,0.01565864,0.022349298,0.016347654,0.03832095,0.0,0.049835052,0.0,0.015776983,0.045264743,0.004496462,0.017970275,0.1261917,0.013743786,0.025539773,0.026897859,0.0,0.0025783954,0.0337629,0.0,0.0,0.015910208,0.0051511694,0.0,0.17203341,0.041382954,0.0102319885,0.045247816,0.040653836,0.0,0.030571375,0.0,0.04510556,0.04226274,0.081084035,0.024803778,0.07536232,0.007973238,0.036174126,0.0,0.1341275,0.012459157,0.04416525,0.01265194,0.0,0.0,0.00030495104,0.030766204,0.050535347,0.014911742,0.06561369,0.0,0.016442092,0.08683789,0.01934554,0.014114037,0.0,0.0023179594,0.0,0.0,0.055927463,0.03784437,0.009498797,0.0,0.03341248,0.025769677,0.0,0.0004824718,0.0,0.0,0.012241475,0.016600873,0.004980142,0.09809481,0.1263385,0.010658622,0.027477346,0.0,0.029536452,0.051533487,0.04652367,9.978935e-05,0.0,0.037960686,0.030903332,0.0,0.01087651,0.14547165,0.0,0.0,0.0010303914
0.03447321,0.0,0.0,0.0,0.0,0.013286173,0.0,0.027846035,0.08541065,0.0058831424,0.008441035,0.026907995,0.018182546,0.0007032578,0.07883808,0.0,0.069034725,0.0,0.033153832,0.046301145,0.022750199,0.01271835,0.0,0.0,0.0,0.04536601,0.0038244887,0.0,0.0,0.0,0.0564799,0.0861202,0.053962555,0.0,0.0,0.02115878,0.072334975,0.048413306,0.0,0.0,0.0,0.0,0.0,0.070331894,0.05780771,0.10263048,0.0,0.01250344,0.050506324,0.007833071,0.0,0.0,0.0,0.0,0.030064201,0.036589283,0.14232384,0.0,0.032535594,0.0,0.04211071,0.0,0.0,0.0,0.00039274243,0.0,0.004913017,0.0068342313,0.0,0.06820774,0.08238424,0.0075972397,0.0,0.09346309,0.02901626,0.023440259,0.0,0.0,0.028473958,0.0006244853,0.07669857,0.0,0.0064341407,0.06180542,0.0,0.0,0.047406398,0.004204735,0.0,0.008228704,0.037654933,0.0,0.0,0.0,0.0,0.0,0.0,0.0,0.0,0.0,0.102150485,0.025703728,0.038104147,0.065089494,0.08556508,0.082829654,0.0,0.0,0.00680357,0.24563062,0.0,0.033834998,0.0,0.06103704,0.009564608,0.0,0.09547532,0.0,0.0,0.019197002,0.011429757,0.08754419,0.047105715,0.02587572,0.0,0.08424666,0.060031768,0.0034038369,0.02081554,0.0,0.060857583,0.0,0.0,0.032518063,0.022823399,0.054445624,0.011115998,0.0,0.06937263,0.055971786,0.0,0.0,0.0033819836,0.0,0.020908056,0.0,0.14230408,0.0022977816,0.02599226,0.13108447,0.0058995783,0.0968474,0.0,0.0,0.025244609,0.05329229,0.0013113463,0.06431369,0.111349255,0.004991712,0.019212995,0.0,0.070602976,0.059241932,0.0,0.018221986,0.04523993,0.02427172,0.11808267,0.023014633,0.0,0.0,0.0,0.040010687,0.0,0.025024332,0.0,0.07249115,0.050730273,0.0,0.014063076,0.043086946,0.049520653,0.00027850983,0.0,0.0,0.016796386,0.028452106,0.0,0.034495376,0.050141703,0.034927845,0.0,0.0994753,0.0,0.022882096,0.0,0.06317399,0.051219866,0.042379297,0.065280266,0.0,0.024732994,0.02616163,0.0,0.056292437,0.0,0.028251149,0.0,0.0,0.0034359787,0.016564334,0.04957766,0.044676036,0.0,0.03875883,0.0,0.0,0.10856977,0.0,0.023721732,0.0,0.0058121686,0.0,0.0015365519,0.041948363,0.016807765,0.0,0.0,0.0,0.0019432157,0.0,0.0,0.0,0.0,0.0022226067,0.006983343,0.041151643,0.006683767,0.0411731,0.0,0.024239514,0.0,0.13835043,0.04576619,0.0,0.11176332,0.0,0.05112478,0.06971486,0.0,0.085523374,0.0055831894,0.0,0.0,0.0
0.051423047,0.0,0.0,0.0,0.0,0.034331065,0.0,0.0013193232,0.077293806,0.09526598,0.038231913,0.124752566,0.05620688,0.0007032578,0.07883808,0.0,0.06800139,0.0,0.006057091,0.046301145,0.10921432,0.05189304,0.0,0.0,0.0,0.01500741,0.0038244887,0.0,0.0,0.0,0.14892168,0.0861202,0.041549485,0.0,0.0,0.021913337,0.007994138,0.048413306,0.0,0.0,0.0,0.0,0.0,0.083727606,0.05780771,0.05851865,0.0,0.0075682555,0.0270477,0.012355678,0.0,0.0,0.0,0.0,0.023424635,0.022548433,0.039872367,0.0,0.040264558,0.0,0.046437703,0.0,0.0,0.0,0.00039274243,0.0,0.0104240775,0.08425076,0.0,0.06820774,0.08238424,0.0048051137,0.0,0.050761826,0.030355103,0.023440259,0.0,0.0057149203,0.06793584,0.0067794174,0.107678264,0.0,0.057307832,0.06180542,0.0,0.0,0.047406398,0.015320025,0.026827635,0.13124296,0.037654933,0.0,0.0,0.0,0.0,0.0,0.0,0.0,0.0,0.0,0.086488314,0.066067286,0.019790426,0.0116991475,0.028441237,0.082829654,0.0,0.0,0.00680357,0.15703635,0.0,0.02788558,0.0,0.046035714,0.009564608,0.0,0.07713754,0.0,0.0,0.0,0.11033603,0.024999168,0.07322402,0.010305077,0.0,0.0859692,0.1304874,0.10623918,0.024390452,0.0,0.075421914,0.0,0.0,0.0582873,0.041749757,0.05028841,0.08375233,0.0,0.06937263,0.02752647,0.0,0.0,0.0,0.0,0.03517814,0.0,0.040274575,0.0022977816,0.06834692,0.029050454,0.00032286346,0.06394932,0.0,0.0,0.10385304,0.16148147,0.14582549,0.06431369,0.04961545,0.14300771,0.026457492,0.0,0.070602976,0.020779137,0.0,0.03102046,0.017079838,0.04248854,0.042187333,0.028542658,0.0,0.0,0.0,0.040010687,0.0,0.11121141,0.0,0.052665148,0.11245174,0.0,0.056949005,0.043086946,0.049520653,0.00027850983,0.0,0.0,0.004071434,0.033503883,0.0,0.0559209,0.014963831,0.04414785,0.0,0.048238635,0.0,0.059501044,0.0,0.0016043447,0.023967259,0.042379297,0.12010624,0.0062958584,0.024732994,0.088906765,0.0,0.054779213,0.0,0.008450165,0.0,0.0,0.0024199449,0.016564334,0.11072509,0.025111929,0.017103983,0.066714495,0.0,0.0,0.017776832,0.0,0.01367597,0.0,0.0058121686,0.0,0.016553242,0.037578262,0.10409284,0.0,0.0,0.0,0.03969472,0.0,0.0,0.0,0.0,0.0022226067,0.01917518,0.015079476,0.053214815,0.011463061,0.0,0.026138544,0.0,0.05546256,0.048335053,0.0,0.012997415,0.0,0.04777962,0.0,0.0,0.021089405,0.025487304,0.0,0.0,0.0
0.0,0.04004504,0.0,0.0,0.0,0.0027874692,0.0,0.0,0.09268014,0.06968453,0.040179357,0.031189024,0.02203608,0.0,0.083024785,0.0,0.11244235,0.0,0.014669139,0.0,0.0,0.03543686,0.0,0.0,0.0,0.005127996,0.0,0.027543155,0.0,0.0,0.054992497,0.0022887802,0.022860281,0.0,0.0,0.0,0.0,0.0,0.0,0.0,0.0,0.0,0.0,0.0,0.032898087,0.040923364,0.0,0.032560468,0.047456898,0.063735105,0.0,0.0,0.0,0.0,0.020861216,0.108674124,0.003402698,0.0,0.021007719,0.003730612,0.009813838,0.0,0.0,0.0,0.047078777,0.0,0.05421926,0.02463419,0.0,0.0,0.13659672,0.022508804,0.0,0.01704828,0.03429699,0.009041617,0.0,0.00033586222,0.0,0.07917454,0.038198803,0.0,0.09110749,0.02455373,0.0,0.0,0.0,0.11942532,0.057980802,0.11309948,0.050440658,0.0,0.0,0.0,0.0,0.0,0.0,0.0,0.0,0.0,0.15918915,0.10400453,0.06347121,0.12891424,0.022971427,0.006071929,0.0846034,0.0,0.0,0.017579779,0.0,0.009074993,0.0,0.03910431,0.0,0.0,0.12471963,0.0,0.0,0.0,0.09267424,0.059037905,0.15031765,0.07127714,0.0,0.12969884,0.004938904,0.11546849,0.053931233,0.0,0.050834063,0.0063489396,0.0,0.052269332,0.041911386,0.12607077,0.038188417,0.0,0.04124627,0.015557818,0.0,0.0,0.0010651461,0.0,0.01758827,0.0,0.006282255,0.0,0.060617976,0.08061426,0.017589793,0.030035287,0.0,0.0,0.057892524,0.23737559,0.05455322,0.0,0.046957776,0.08579385,0.08392157,0.0,0.021479838,0.029492244,0.0,0.00096604414,0.030320987,0.058944415,0.01648004,0.005278792,0.023796394,0.0,0.0,0.011397053,0.0030329148,0.093080975,0.0,0.099041566,0.19279696,0.0,0.008719888,0.020337505,0.0,0.0,0.01170174,0.0,0.0,0.016054567,0.0,0.24431346,0.06012781,0.0,0.0,0.0579141,0.0,0.02526678,0.0,0.011832489,0.01507175,0.022387,0.003403615,0.06287763,0.11266917,0.11784841,0.0,3.5986304e-06,0.0,0.09364118,0.0,0.0,0.01528661,0.0,0.021943294,0.00061006844,0.17118895,0.0035108328,0.0,0.0,0.054442093,0.0,0.10781937,0.0,0.0,0.0,0.047973294,0.10590996,0.021615354,0.0,0.0,0.0,0.0,0.0,0.0,0.0,0.0,0.08794604,0.0620873,0.0005738605,0.060309507,0.124182954,0.0,0.024875123,0.0,0.0,0.023323502,0.0,0.08305567,0.0,0.056333855,0.0,0.0,0.009337395,0.08203226,0.0,0.0,0.0
0.0,0.0031399096,0.0,0.0,0.0,0.023555266,0.0,0.0,0.06445703,0.00631848,0.053256594,0.06642338,0.017970212,0.0,0.111925624,0.0,0.027642436,0.0,0.016126614,0.040704794,0.06611681,0.11392836,0.0,0.0,0.0,0.07697528,0.0,0.027543155,0.0,0.0,0.0034663677,0.0022887802,0.041478124,0.0042303414,0.0,0.0,0.04007631,0.0,0.0,0.0,0.0,0.0,0.0,0.0048577567,0.010232875,0.0034670755,0.0,0.07796672,0.013287172,0.02267111,0.0,0.0,0.0,0.0,0.044052012,0.08448693,0.113001734,0.0,0.04025819,0.003730612,0.08959811,0.0,0.0,0.0,0.0,0.0,0.021465898,0.024664186,0.0,0.0,0.030572787,0.0013190191,0.0,0.041072316,0.020110289,0.009041617,0.0,0.0,0.0415391,0.0016689375,0.029882181,0.0,0.10981877,0.025295032,0.0,0.0,0.04685128,0.004980609,0.0,0.07148949,0.048789818,0.0,0.0,0.0,0.0,0.0,0.0,0.0,0.0,0.0,0.110833794,0.14893329,0.038273953,0.16691364,0.044625208,0.016692692,0.0,0.0,0.0,0.14640501,0.0,0.05477921,0.0,0.0849473,0.05087987,0.0,0.0027774423,0.0,0.0,0.0,0.0010948703,0.0106094405,0.11131972,0.09376574,0.0,0.14240734,0.058658805,0.03482925,0.022636902,0.0,0.02866567,0.0,0.0,0.007184975,0.041911386,0.010556877,0.00913807,0.0,0.08050922,0.002459392,0.0,0.0,0.040701006,0.0,0.046456918,0.0,0.005489826,0.0,0.09953627,0.08061426,0.053816132,0.054221824,0.0,0.0,0.0029355362,0.15355748,0.08383701,0.0,0.0105809495,0.023187332,0.0,0.0,0.00092476606,0.04718312,0.0,0.008997535,0.0668868,0.03416532,0.10370649,0.0,0.0,0.0,0.0,0.0,0.0,0.003929563,0.0,0.04280823,0.062069952,0.0,0.027434979,0.020337505,0.008027599,0.0,0.01170174,0.0,0.0,0.00043585658,0.0,0.004184413,0.067370065,0.014763319,0.0,0.06642607,0.0,0.050895274,0.0,0.02887102,0.036041997,0.08516814,0.05415787,0.0,0.0,0.11934635,0.0,0.050477568,0.0,0.039748397,0.0,0.0,0.0,0.0,0.025681414,0.09287739,0.17118895,0.08427019,0.0,0.0,0.0025049895,0.0,0.0,0.0,0.0,0.0,0.043798376,0.02842557,0.0062595997,0.0,0.0,0.0,0.039119463,0.0,0.0,0.0,0.0,0.08794604,0.026505707,0.068849824,0.018512368,0.022606999,0.0,0.0027621612,0.0014411735,0.08002434,0.039031442,0.0,0.024290603,0.0,0.06503013,0.0,0.0,0.048603863,0.057843868,0.0,0.0,0.0
0.14969303,0.0,0.0,0.0,0.0,0.0,0.0,0.076065876,0.0,0.037211306,0.0631323,0.06388908,0.08422175,0.13594851,0.0,0.0,0.0018560067,0.12713556,0.14228927,0.03922829,0.07942757,0.052095477,0.0,0.0,0.0,0.07362503,0.0,0.059655167,0.0,0.0,0.012576193,0.18133801,0.039176773,0.0,0.10849113,0.13619806,0.023213178,0.0,0.0,0.0,0.05388038,0.0,0.0017569767,0.09886015,0.030736899,0.096973665,0.0,0.026785612,0.10945158,0.051235694,0.0,0.0,0.0,0.0,0.0,0.07820688,0.046705835,0.009586292,0.06220977,0.0,0.11121418,0.0,0.14899182,0.0,0.0020164815,0.0,0.026515849,0.13099599,0.0,0.0,0.012465659,0.1029484,0.0,0.038498614,0.0,0.0,0.0,0.0,0.13562119,0.007838063,0.0,0.0,0.008383948,0.09191707,0.0,0.0,0.0,0.07365195,0.0,0.13474034,0.1585991,0.0,0.0,0.0,0.043647997,0.0,0.0,0.0,0.0,0.0,0.01790737,0.0,0.017637935,0.088469654,0.005877221,0.1461181,0.0,0.0,0.0,0.08191095,0.0,0.0,0.098193035,0.04625763,0.06803691,0.0,0.07152489,0.0,0.0,0.14882237,0.10137237,0.051183883,0.086656995,0.030099288,0.0,0.014588051,0.08993896,0.10133112,0.0,0.0,0.15117034,0.0,0.0,0.04310655,0.006421324,0.03209212,0.06595953,0.0,0.0,0.0,0.0,0.0,0.0,0.0,0.16220237,0.0,0.15739109,0.0,0.01767534,0.0,0.0212076,0.113955885,0.0,0.0,0.0789393,0.03350368,0.04436189,0.048650872,0.07766777,0.08640526,0.16751894,0.0,0.042212676,0.0,0.01199103,0.049326323,0.061123885,0.049519397,0.07545505,0.13783477,0.0,0.0,0.14310476,0.13409531,0.0,0.08389266,0.007284225,0.086807325,0.0,0.0,0.075112484,0.0,0.07103108,0.0,0.0,0.0,0.0,0.0023268685,0.0,0.16116454,0.032679327,0.020329678,0.040960357,0.0,0.0,0.10695023,0.02661367,0.009280413,0.087770574,0.16074355,0.0041269995,0.039773665,0.006372109,0.019347357,0.0,0.0,0.059176236,0.01798661,0.027922079,0.018523254,0.0,0.0,0.0063865036,0.05485189,0.0,0.11419963,0.0,0.05370082,0.0048263147,0.0,0.11066024,0.0,0.0,0.0,0.0,0.022576071,0.03550616,0.04971685,0.0,0.0,0.06867019,0.0,0.0,0.0,0.0,0.016876671,0.037292626,0.04840501,0.085465185,0.023235455,0.01717417,0.009607542,0.06429525,0.07583213,0.018121533,0.015513874,0.037211277,0.0,0.085659005,0.04030382,0.03611017,0.0,0.18451622,0.0,0.0,0.0
0.14969303,0.0,0.0,0.0,0.0,0.0,0.0,0.076065876,0.0,0.037211306,0.0631323,0.06388908,0.08422175,0.13594851,0.0,0.0,0.0018560067,0.12713556,0.14228927,0.03922829,0.07942757,0.052095477,0.0,0.0,0.0,0.07362503,0.0,0.059655167,0.0,0.0,0.012576193,0.18133801,0.039176773,0.0,0.10849113,0.13619806,0.023213178,0.0,0.0,0.0,0.05388038,0.0,0.0017569767,0.09886015,0.030736899,0.096973665,0.0,0.026785612,0.10945158,0.051235694,0.0,0.0,0.0,0.0,0.0,0.07820688,0.046705835,0.009586292,0.06220977,0.0,0.11121418,0.0,0.14899182,0.0,0.0020164815,0.0,0.026515849,0.13099599,0.0,0.0,0.012465659,0.1029484,0.0,0.038498614,0.0,0.0,0.0,0.0,0.13562119,0.007838063,0.0,0.0,0.008383948,0.09191707,0.0,0.0,0.0,0.07365195,0.0,0.13474034,0.1585991,0.0,0.0,0.0,0.043647997,0.0,0.0,0.0,0.0,0.0,0.01790737,0.0,0.017637935,0.088469654,0.005877221,0.1461181,0.0,0.0,0.0,0.08191095,0.0,0.0,0.098193035,0.04625763,0.06803691,0.0,0.07152489,0.0,0.0,0.14882237,0.10137237,0.051183883,0.086656995,0.030099288,0.0,0.014588051,0.08993896,0.10133112,0.0,0.0,0.15117034,0.0,0.0,0.04310655,0.006421324,0.03209212,0.06595953,0.0,0.0,0.0,0.0,0.0,0.0,0.0,0.16220237,0.0,0.15739109,0.0,0.01767534,0.0,0.0212076,0.113955885,0.0,0.0,0.0789393,0.03350368,0.04436189,0.048650872,0.07766777,0.08640526,0.16751894,0.0,0.042212676,0.0,0.01199103,0.049326323,0.061123885,0.049519397,0.07545505,0.13783477,0.0,0.0,0.14310476,0.13409531,0.0,0.08389266,0.007284225,0.086807325,0.0,0.0,0.075112484,0.0,0.07103108,0.0,0.0,0.0,0.0,0.0023268685,0.0,0.16116454,0.032679327,0.020329678,0.040960357,0.0,0.0,0.10695023,0.02661367,0.009280413,0.087770574,0.16074355,0.0041269995,0.039773665,0.006372109,0.019347357,0.0,0.0,0.059176236,0.01798661,0.027922079,0.018523254,0.0,0.0,0.0063865036,0.05485189,0.0,0.11419963,0.0,0.05370082,0.0048263147,0.0,0.11066024,0.0,0.0,0.0,0.0,0.022576071,0.03550616,0.04971685,0.0,0.0,0.06867019,0.0,0.0,0.0,0.0,0.016876671,0.037292626,0.04840501,0.085465185,0.023235455,0.01717417,0.009607542,0.06429525,0.07583213,0.018121533,0.015513874,0.037211277,0.0,0.085659005,0.04030382,0.03611017,0.0,0.18451622,0.0,0.0,0.0
0.051729072,0.0,0.0,0.0,0.017045816,0.009434126,0.0,0.053123612,0.0,0.09379099,0.10017851,0.033116013,0.042718884,0.07273993,0.013160892,0.0,0.042270493,0.1283704,0.012198947,0.0020317025,0.062259614,0.12833922,0.0,0.0,0.0,0.014058547,0.0,0.07273405,0.0,0.0,0.039607868,0.011218138,0.0665184,0.0,0.0028180964,0.063566275,0.116677165,0.0,0.0,0.0,0.06893799,0.0,0.061937556,0.1526803,0.016491842,0.014096044,0.0,0.021067541,0.06923659,0.014820311,0.0,0.018459668,0.0,0.0,0.033708923,0.04880172,0.10845602,0.0,0.036062516,0.0,0.14066823,0.0,0.09140298,0.0,0.04873824,0.0,0.083666995,0.102590345,0.0,0.006962939,0.0,0.033510536,0.0067526265,0.017271526,0.008758699,0.0,0.0,0.0,0.05031521,0.11656287,0.10205666,0.0,0.038652536,0.08438169,0.0,0.017300576,0.0600264,0.115691885,0.0,0.10963,0.13361444,0.0,0.0,0.023848243,0.0,0.0,0.0035962074,0.0,0.0,0.0,0.023517875,0.0,0.13860172,0.050582208,0.0065381024,0.011222164,0.008959988,0.0,0.0,0.05304548,0.0,0.09683944,0.037475377,0.12172923,0.071779996,0.0,0.17110144,0.0,0.029410774,0.0,0.08097219,0.13102317,0.107832044,0.0058503263,0.0,0.18527094,0.16094297,0.03767255,0.15182485,0.0,0.037416317,0.0,0.0,0.05811256,0.04620611,0.009152442,0.023924172,0.0,0.03963474,0.0,0.0,0.0,0.0,0.0,0.087796755,0.0,0.11339564,0.0,0.03702018,0.0,0.03124559,0.022957899,0.0,0.035407837,0.0049399734,0.026921477,0.013734237,0.04379753,0.067534246,0.12035483,0.0026630703,0.0,0.03966537,0.07425247,0.05123032,0.05261282,0.03945876,0.18425171,0.07079904,0.06521372,0.0,0.0004771249,0.063304976,0.22215636,0.0,0.02259072,0.0022409311,0.16270539,0.056546573,0.0,0.06416634,0.01755911,0.02865854,0.0,0.01351207,0.0,0.0,0.017189223,0.0,0.047572516,0.086447746,0.033490278,0.0,0.011581888,0.0,0.0766621,0.0,0.119153865,0.119918324,0.013360161,0.00024428964,0.057541627,0.08124657,0.0,0.0,0.0375812,0.0,0.01955926,0.0,0.0,0.0,0.010656882,0.11421289,0.010142326,0.0,0.13774945,0.0,0.008880849,0.060026888,0.0,0.023448434,0.0,0.031816382,0.0,0.0,0.11256915,0.1850231,0.023571728,0.0,0.0,0.039580323,0.0,0.0,0.0,0.0,0.093017265,0.040318966,0.0,0.12359956,0.12146116,0.18658441,0.08881699,0.0,0.025794223,0.016096868,0.05665465,0.053970356,0.055536725,0.07447242,0.0,0.0,0.16991554,0.036585253,0.0,0.0,0.0
0.03640115,0.0,0.0,0.0,0.017045816,0.018709037,0.0,0.0009910784,0.0,0.01353693,0.08470418,0.016795471,0.07692298,0.15535118,0.009899251,0.0,0.042270493,0.030474037,0.00530798,0.032300785,0.111154065,0.08279762,0.0,0.0,0.0,0.008371429,0.0,0.036035236,0.0,0.0,0.0083437115,0.032154903,0.0,0.0,0.007333204,0.041658916,0.094742596,0.0,0.0,0.0,0.11603691,0.0,0.022527102,0.070278265,0.068483286,0.044436395,0.0,0.0,0.0,0.02749253,0.0,0.0,0.0,0.0,0.017744943,0.076907136,0.080159836,0.0,0.0705543,0.0,0.051995143,0.0,0.09140298,0.0,0.042895906,0.0,0.0015556104,0.102590345,0.0,0.0,0.0,0.00585166,0.0067526265,0.04421266,0.0,0.0,0.0,0.0,0.046986215,0.11757844,0.0050807446,0.0,0.020578656,0.13061382,0.0,0.0042765187,0.0,0.013463435,0.0,0.073740825,0.14949688,0.0,0.0,0.03458873,0.0,0.0,0.0,0.0,0.0,0.0,0.023517875,0.0,0.06621613,0.0052887574,0.0065381024,0.002063374,0.008959988,0.0,0.0,0.044378474,0.0,0.008724899,0.145254,0.0113067925,0.013115458,0.0,0.047894426,0.0,0.0,0.07068048,0.017528687,0.0,0.1908887,0.044199537,0.0,0.027026238,0.006143734,0.009317845,0.015785113,0.0,0.14517473,0.0,0.0,0.049013004,0.061465476,0.06418857,0.037060495,0.0,0.0,0.0,0.0,0.0,0.0,0.0,0.10152182,0.0,0.099293515,0.0,0.035591103,0.0062617036,0.07145102,0.14487842,0.0,0.0,0.007827289,0.10818802,0.0,0.1098189,0.03236796,0.050867543,0.00036344118,0.0,0.017441873,0.0,0.0100912675,0.033121236,0.07510826,0.12977432,0.008768767,0.0020161718,0.0,0.0004771249,0.0,0.07722769,0.0,0.053029485,0.0022409311,0.0059716664,0.05679464,0.0,0.098065324,0.0039528473,0.010019124,0.0,0.0,0.0,0.0,0.017189223,0.0,0.04931008,0.0018742243,0.041595507,0.04005154,0.027717195,0.0,0.004810846,0.0,0.0150844455,0.10542506,0.008941889,0.011969622,0.06857325,0.027026154,0.0,0.0,0.015226115,0.0,0.026885271,0.0,0.0,0.0,0.0016973031,0.08817982,0.008439012,0.0,0.07714124,0.0,0.0,0.085148685,0.0,0.007306125,0.0,0.0,0.0,0.0,0.1319988,0.08015716,0.06742884,0.0,0.0,0.007161457,0.0,0.0,0.0,0.0,0.031111706,0.00086599216,0.06778109,0.03396527,0.14743353,0.017005771,0.031926423,0.0,0.14791739,0.09553365,0.011736814,0.08045593,0.0,0.042725503,0.08135662,0.0,0.0,0.017856179,0.0,0.0,0.0
0.009278575,0.0,0.0048523284,0.0,0.0072875265,0.0,0.052630793,0.020245478,0.0,0.0020840664,0.039492447,0.0,0.02698564,0.0,0.08897224,0.033168394,0.038514867,0.015561901,0.07730043,0.0,0.032781284,0.068886705,0.0,0.0,0.0,0.06289596,0.0,0.020943318,0.0,0.0,0.047023397,0.08105919,0.0,0.0,0.0,0.08375327,0.030165093,0.0,0.085246064,0.029826477,0.011423796,0.0,0.0,0.018409023,0.0037247257,0.0,0.0022023774,0.0,0.07225795,0.0,0.0,0.0,0.02774496,0.0,0.023545047,0.01731672,0.030353516,0.0,0.0,0.010460473,0.0,0.0,0.0,0.041085497,0.001282469,0.03570944,0.03035599,0.00013758242,0.0,0.03590161,0.00052108406,0.031506035,0.0,0.05890422,0.0,0.0626404,0.0,0.020794522,0.005542103,0.07487149,0.0,0.0,0.050729632,0.025792493,0.017030157,0.0,0.0,0.036760364,0.0,0.020825297,0.09773011,0.0035162764,0.0,0.0,0.0,0.0,0.04438603,0.0,0.0,0.0,0.0,0.011596384,0.039180137,0.053701438,0.017677605,0.0011387132,0.0,0.0,0.0,0.0045058876,0.0,0.015810898,0.0010879636,0.07848005,0.038263742,0.0,0.0,0.0,0.0,0.042399727,0.019315384,0.0,0.08477399,0.0,0.0,0.0020102747,0.0121536255,0.020735748,0.0,0.0,0.026102807,0.0,0.0060831457,0.052474618,0.03381821,0.02145413,0.0,0.0,0.0,0.010090279,0.0,0.00010761897,0.048547458,0.031165145,0.019931484,0.0062879026,0.033502012,0.0,0.01002799,0.03066092,0.04388218,0.0,0.0,0.036538154,0.0,0.032550335,0.0015166375,0.0,0.034747377,0.0,0.0070677213,0.0,0.009653941,0.01270857,0.0025384873,0.02516637,0.0,0.033370197,0.0,0.025832392,0.0,0.0,0.0,0.0,0.005103438,0.043082412,0.01609262,0.01078311,0.012944197,0.0,0.017506415,0.0,0.040462688,0.012019737,0.0,0.0,0.004058182,0.046254404,0.0,0.099004805,0.0099844495,0.019836094,0.043909512,0.023384646,0.0,0.0,0.050403558,0.0933645,0.034100562,0.06503994,0.019829042,0.0,0.0,0.02641731,0.0,0.0,0.0036392547,0.05822191,0.0,0.048817426,0.010452033,0.0,0.003995478,0.028826669,0.0,0.0343848,0.0,0.016932067,0.074011564,0.019121129,0.06666859,0.0,0.0055496306,0.0,0.0,0.070487715,0.0,0.005589324,0.0,0.0,0.0,0.0,0.057031892,0.0,0.0,0.0,0.0,0.026385024,0.0017607138,0.008037806,0.029883347,0.07934937,0.0,0.0020790845,0.0,0.0072940327,0.06642783,0.0,0.08977713,0.026280895,0.0,0.001934506,0.077906415,0.010021438,0.004950701,0.0
0.016667495,0.016423397,0.0047693504,0.0,0.048918292,0.0,0.036391955,0.017968401,0.0,0.022880789,0.0056350306,0.05922806,0.037449636,0.0,0.011658732,0.0040109665,0.03416416,0.008721265,0.013787426,0.0,0.032781284,0.02026315,0.0,0.0,0.0,0.05793214,0.0,0.04615517,0.0,0.0,0.026002117,0.035557,0.0,0.0,0.0,0.04942916,0.000103186816,0.0,0.028530108,0.019644465,0.009236455,0.0,0.0,0.038254064,0.00336401,0.0,0.0022023774,0.0,0.01783523,0.0,0.0,0.0,0.0029080082,0.0,0.00159516,0.029917408,0.005099833,0.0,0.004029041,0.00370262,0.0,0.0,0.0,0.026747942,0.008907113,0.011130299,0.105043374,0.07606008,0.0,0.0013509318,0.00052108406,0.036243852,0.03087913,0.0061849654,0.0,0.014071032,0.0,0.029554874,0.0,0.03654231,0.0,0.0,0.07309377,0.0176431,0.02870968,0.0,0.0,0.061961107,0.0,0.04708279,0.030158699,0.0035162764,0.0,0.007753003,0.0,0.0,0.014395537,0.0,0.0,0.0,0.0,0.011596384,0.05529075,0.013676899,0.08929761,0.010998857,0.01961299,0.0,0.0,0.028336339,0.0,0.011547903,0.009969894,0.023698002,0.006374106,0.0,0.0,0.0,0.0,0.059047528,0.014064588,0.0017164497,0.05206433,0.002695119,0.06828108,0.023692647,0.06225776,0.056585643,0.0,0.0,0.0,0.0,0.015557364,0.00063418597,0.022029556,0.026464434,0.0,0.0,0.03132651,0.010090279,0.0,0.00010761897,0.073015146,0.037236184,0.025551038,0.007271435,0.010591179,0.0,0.024925694,0.064657845,0.023728402,0.0,0.0,0.00095850974,0.0,0.034566164,0.026526464,0.0,0.049887944,0.0,0.049600095,0.0,8.85129e-06,0.016392462,0.03918351,0.058836315,0.0,0.07226071,0.0024658283,0.020125229,0.0,0.0,0.010278609,0.0,0.0050279535,0.05588346,0.0,0.0059360433,0.008493064,0.0,0.0070336154,0.006144457,0.006346736,0.04249894,0.0,0.0,0.004058182,0.030003726,0.0,0.024153851,0.00085187634,0.040925592,0.01557822,0.041754663,0.0,0.0,0.035121143,0.03320414,0.00103423,0.020657185,0.041109785,0.003911605,0.0,0.010756725,0.0,0.0,0.0036392547,0.038273975,0.0,0.016867459,0.010452033,0.0,0.064715475,0.09514484,0.0,0.023827337,0.0,0.0076715965,0.013574276,0.010813044,0.028030947,0.0,0.0038286927,0.0,0.006810726,0.013255462,0.037537318,0.011076759,0.0,0.0,0.0,0.0,0.001406379,0.0,0.0,0.0,0.0,0.015493691,0.03167537,0.042638168,0.015547396,0.005363062,0.0,0.03393182,0.0,0.026221018,0.05539362,0.01126921,0.010595247,0.024381937,0.0,0.032688066,0.037266426,0.009624044,0.003596847,0.0
0.2605258,0.0,0.03337349,0.0,0.044738438,0.0,0.027197048,0.096730515,0.0,0.03248222,0.035021435,0.038165994,0.055331893,0.056044325,0.13010459,0.0,0.009923793,0.032824006,0.05561733,0.033868663,0.09721094,0.055372976,0.0,0.0,0.0,0.0,0.0,0.0,0.0,0.0,0.05613961,0.1221174,0.0,0.0,0.0,0.03691496,0.03950419,0.0,0.028280765,0.015903356,0.0,0.0,0.0,0.060795106,0.0,0.0,0.0,0.0,0.083131135,0.0,0.0,0.0,0.0,0.0,0.0217051,0.0,0.03276553,0.0,0.061432626,0.0,0.0,0.0,0.07048702,0.052469015,0.0704113,0.012168251,0.0055327713,0.056222945,0.0,0.009428726,0.0011972394,0.12164662,0.0,0.02212767,0.022165842,0.033022396,0.0,0.005215891,0.051963065,0.026237741,0.0,0.0,0.020323485,0.012389213,0.02332411,0.0,0.0,0.060460966,0.0,0.011030402,0.028884023,0.0,0.0,0.0,0.11421408,0.0,0.07404448,0.0,0.0,0.0,0.0,0.0,0.009571377,0.114283614,0.0457187,0.023502056,0.042053353,0.0043975026,0.0,0.085228905,0.0,0.02379495,0.012808461,0.09678578,0.082237266,0.0,0.0,0.075732656,0.0,0.11388553,0.0421126,0.0,0.104326144,0.03128644,0.01608721,0.031451985,0.06372238,0.08547826,0.0,0.0,0.06827551,0.0,0.05185348,0.07330361,0.0058941655,0.016339455,0.0,0.0,0.013149966,0.009849311,0.0,0.0,0.057163775,0.02092005,0.0,0.013872082,0.13956113,0.0,0.05359887,0.02720489,0.017076232,0.0,0.0,0.036300953,0.0,0.072679825,0.0068080463,0.0,0.045416463,0.0,0.11658219,0.0,0.072151415,0.020087609,0.02762881,0.042200133,0.0,0.11122139,0.013426917,0.07593159,0.0,0.0,0.04158099,0.0,0.0,0.018508693,0.06891576,0.0,0.0,0.0,0.0,0.006626212,0.0045060795,0.07389477,0.0,0.0,0.0,0.10670228,0.0,0.23456667,0.0,0.07625289,0.0,0.040750258,0.0,0.0,0.017872132,0.00466072,0.069371745,0.019011315,0.025661059,0.009985908,0.0,0.03488797,0.0,0.0,0.0,0.05232264,0.0,0.19330892,0.0,0.0,0.025006488,0.010648534,0.0,0.02660457,0.0,0.0,0.1318094,0.0,0.011896938,0.0419142,0.0,0.0,0.059568644,0.09972289,0.10137751,0.0,0.0,0.0,0.0,0.0,0.0,0.0,0.0,0.0,0.0,0.041485596,0.0015925914,0.004847735,0.029737184,0.058712352,0.0,0.07341954,0.0,0.045949303,0.08296364,0.0,0.005431384,0.032646988,0.0,0.05553143,0.0063645393,0.0,0.0,0.0
0.022019327,0.0046123248,0.027964693,0.0,0.017699093,0.0,0.006680535,0.032844424,0.0,0.021800734,0.006349031,0.026051212,0.03530458,0.011671111,0.06613678,0.009479206,0.05444081,0.007841129,0.026799917,0.0010448268,0.072940364,0.018478587,0.0,0.0,0.0,0.013659291,0.0,0.005603463,0.0,0.0,0.076408006,0.03153123,0.0,0.0,0.0,0.0003954731,0.021296665,0.0015415155,0.0045225658,0.00806704,0.000232839,0.0,0.0045080837,0.054767877,0.0034785522,0.0,0.00052498194,3.384065e-05,0.0029446166,0.0,0.0,0.0,0.0048469016,0.0,0.014515055,0.065261744,0.0018281229,0.0,0.0006229775,0.0026574815,0.0,0.0,0.001518688,0.03224802,0.025498437,0.0036786199,0.0038801879,0.031019602,0.0,0.0017616004,0.010984216,0.05719769,0.008544657,0.0007696897,0.011777477,0.03862741,0.0,0.019488186,0.0039169234,0.040097296,0.0010048809,0.0,0.020956337,0.009747308,0.022545759,0.0,0.007443213,0.081848815,0.0,0.009605907,0.025783852,0.0,0.00046993024,0.02048456,0.0,0.0,0.035997123,0.0,0.0,0.0,0.0,0.00073195057,0.052181233,0.04179956,0.017467305,0.013440759,0.027609305,0.0053636725,0.0,0.05947925,0.0,0.010165835,0.020279067,0.035355598,0.04540367,0.0,0.0,0.0053466633,0.0,0.044961847,0.04516724,0.018391665,0.043240726,0.02602344,0.0032309843,0.034464188,0.017498754,0.024544396,0.0,0.0,0.015798306,0.0023073603,0.01996338,0.07475608,0.021156061,0.0012848713,0.0,0.0012310026,0.02531903,0.00070330297,0.0,0.0008230852,0.015225776,0.014304142,0.028664295,0.030787792,0.025332019,0.0,0.06817273,0.009331778,0.00889907,0.0,0.0,0.0058865976,0.0,0.021380015,0.010877129,0.0,0.011081908,0.0,0.026896609,0.0,0.028414927,0.0058132485,0.037516825,0.015570455,0.0055671837,0.07117082,0.010018472,0.03093785,7.044621e-05,0.0,0.0036071183,0.002224079,0.0,0.027239105,0.08474411,0.016664656,0.00601455,0.009728926,0.024399253,0.004506372,0.0033263005,0.053277105,0.0,0.0,0.0,0.081441894,0.0,0.07878874,0.0024954632,0.038153823,0.014612601,0.041621663,0.0,0.0,0.026851125,0.017057788,0.023600832,0.004778929,0.05720323,0.0002040742,0.0,0.011362599,0.0,0.0,0.0,0.013963878,0.0,0.036644712,0.0030697875,0.0,0.063562274,0.08958639,0.0,0.027398493,0.0,0.024854045,0.065733775,0.0002811842,0.04199338,0.004816117,0.008823032,0.0,0.01922637,0.03405656,0.016597861,0.0068424223,0.0,0.0,0.0,0.0,0.0027958227,0.0,0.0,8.1408514e-05,0.0,0.04872479,0.00475242,0.019934118,0.014225161,0.02802613,0.0,0.055676848,0.0,0.003531292,0.042884193,0.0023353342,0.061218306,0.015086094,0.0,0.049628396,0.006555319,0.003983128,0.0075721927,0.0
0.04331459,0.0,0.0,0.0,0.027935933,0.010402624,0.0,0.02313118,0.0,0.041026667,0.026277639,0.1409288,0.068915606,0.11916871,0.12539667,0.0,0.013206303,0.107818395,0.05564041,0.0,0.17763156,0.015628502,0.0,0.0,0.0,0.0,0.018284526,0.017417489,0.0,0.0,0.020690136,0.16105491,0.004628297,0.010520877,0.057645928,0.04265051,0.019083992,0.040379286,0.0,0.0,0.0024148598,0.0,0.022152625,0.0,0.05404854,0.012215018,0.0,0.037480716,0.055841316,0.0031845495,0.0,0.0,0.01234996,0.0,0.009607248,0.00074487826,0.060533274,0.0,0.10024059,0.0038335524,0.008627016,0.0,0.0,0.0,0.04495074,0.0,0.01647868,0.03666337,0.0062358556,0.098752685,0.10492985,0.06298129,0.0,0.0077538267,0.0004545041,0.0049813157,0.0,0.0010513494,0.0,0.008908622,0.016093418,0.08809129,0.08539653,0.04133104,0.0,0.0,0.018083757,0.10462109,0.013511588,0.0015602141,0.011186201,0.0,0.004408379,0.0,0.0,0.0,0.0,0.0,0.0,0.0,0.029864449,0.07431852,0.004828334,0.065987274,0.014269218,0.08860019,0.010005383,0.0,0.036556322,0.081221074,0.0,0.0,0.0,0.1393939,0.0693965,0.0,0.013157096,0.0,0.0,0.0,0.036998443,0.092208534,0.078246735,0.087190725,0.0,0.032286733,0.10289013,0.0516111,0.0031346632,0.0,0.07834462,0.0004851454,0.0,0.010351054,0.029430404,0.028130889,0.07101516,0.009605222,0.11048835,0.0,0.0,0.0,0.003299252,0.0,0.02207089,0.0,0.012644291,0.0,0.0001093857,0.09295515,0.15323716,0.046629414,0.0,0.0,0.065617435,0.014984728,0.018912045,0.025251208,0.07267185,0.049876392,0.15453972,0.0,0.0027137697,0.07526923,0.074226625,0.07487977,0.006417282,0.033141807,0.043812364,0.07149328,0.01574015,0.0017247357,0.0,0.023307187,0.029166507,0.035301276,0.003959919,0.008690957,0.0057872157,0.013560907,0.028080996,0.019269792,0.0059923152,0.0072605005,0.0,0.0,0.008966044,0.01711756,0.0,0.020224571,0.003953129,0.0,0.0051786313,0.049175136,0.0,0.009120002,0.0,0.13590404,0.035529718,0.041931577,0.08077558,0.055980556,0.003027875,0.10267276,0.0,0.017940478,0.0,0.008770817,0.0,0.0,0.00069107313,0.08818202,0.0034198537,0.03017913,0.0,0.027406726,0.0,0.0,0.09730267,0.0,0.012523435,0.0,0.0065908786,0.0,0.0027588308,0.041317597,0.12003529,0.03516103,0.0,0.0,0.02239466,0.0,0.0,0.0,0.0,0.0,0.014262172,0.012485999,0.010778156,0.052883424,0.08256128,0.06402941,0.0,0.2675682,0.042991377,0.08259173,0.0201027,0.0,0.06588096,0.0,0.02011706,0.0022989456,0.043072686,0.0,0.0,0.0
0.009414991,0.0,0.0,0.0,0.0029218756,0.00387886,0.0,0.02801394,0.01010797,0.058104623,0.020401657,0.06870727,0.024449296,0.013024645,0.037754357,0.0,0.0563398,0.018564906,0.048659,0.025960298,0.07828813,0.054870486,0.0,0.0,0.0,0.0,0.022330567,0.004466828,0.0,0.0,0.03254442,0.015555974,0.004628297,0.013524785,0.0,0.012332555,0.0024235193,0.040379286,0.0,0.0,0.022973087,0.0,0.0026710182,0.011861395,0.015392214,0.04385239,0.0,0.0012601055,0.06022927,0.06508474,0.0,0.007949272,0.01234996,0.0,0.0050347354,0.036650352,0.0,0.0,0.024508178,0.0050717206,0.006749481,0.0,0.0,0.0,0.019096069,0.0,0.048505493,0.010500349,0.0022653118,0.022884138,0.0907681,0.042022943,0.0,0.03452798,0.01617277,0.006536985,0.0,0.024169493,0.018899186,0.051136173,0.016092464,0.09955286,0.00094264746,0.026239108,0.0,0.0,0.012388758,0.01953663,0.013511588,0.0040373667,0.0028487686,0.0,0.004408379,0.0,0.0,0.0,0.0,0.0,0.0,0.010801272,0.008042209,0.054988492,0.045124494,0.036676377,0.013429031,0.015146986,0.002495111,0.0,0.0029689744,0.007773742,0.0,2.0194957e-05,0.0,0.013764486,0.008119166,0.0,0.04439529,0.0,0.0,0.010275182,0.029632516,0.045060568,0.037391692,0.04701574,0.0,0.07819413,0.029535905,0.0307378,0.03100514,0.0,0.008087737,0.0004851454,0.0,0.061944705,0.033920575,0.014771324,0.009280715,0.025147583,0.018297993,0.0,0.0,0.0,0.021694796,0.0,0.037173696,0.0,0.00029616058,0.018292736,0.03813712,0.026689248,0.06079495,0.018442184,0.0,0.0,0.03355886,0.008098317,0.018912045,0.025251208,0.013406597,0.013422832,0.0027470412,0.022081709,0.003407292,0.03629317,0.08131155,0.008650668,0.017294213,0.0054498613,0.06763895,0.034560934,0.01574015,0.0010131275,0.0017519054,0.016816335,0.00071604736,0.006034363,0.0037781382,0.02357447,0.0049630147,0.011752313,0.10440328,0.019269792,0.01501786,0.005027865,0.0,0.0,0.0006458312,0.03737486,0.0,0.020224571,0.023492508,0.030515345,0.0051786313,0.02848873,0.0,0.006021261,0.0,0.015027141,0.025387555,0.014096454,0.004963137,0.02793938,0.0011564493,0.018495157,0.0,0.05149065,0.0,0.006251755,0.0,0.0,0.00069107313,0.022405837,0.010480598,0.019028975,0.0,0.031284697,0.0,0.0,0.0360341,0.0,0.062046573,0.0,0.0065908786,0.0,0.03817996,0.023878187,0.067838565,0.020488616,0.0,0.0,0.013158079,0.0,0.0,0.0,0.0,0.0021455502,0.004327099,0.01592666,0.055768903,0.03126314,0.01019077,0.031160913,0.0,0.041916735,0.058094166,0.0105715655,0.0201027,0.0,0.0010191202,0.0,0.015944362,0.042269424,0.05329373,0.0,0.0,0.0
0.0,0.0,0.0,0.0,0.0,0.0,0.0,0.0,0.0,0.0,0.0,0.0,0.0,0.0,0.0,0.0,0.0,0.0,0.0,0.0,0.0,0.0,0.0,0.0,0.0,0.0,0.0,0.0,0.0,0.0,0.0,0.0,0.0,0.0,0.0,0.0,0.0,0.0,0.0,0.0,0.0,0.0,0.0,0.0,0.0,0.0,0.0,0.0,0.0,0.0,0.0,0.0,0.0,0.0,0.0,0.0,0.0,0.0,0.0,0.0,0.0,0.0,0.0,0.0,0.0,0.0,0.0,0.0,0.0,0.0,0.0,0.0,0.0,0.0,0.0,0.0,0.0,0.0,0.0,0.0,0.0,0.0,0.0,0.0,0.0,0.0,0.0,0.0,0.0,0.0,0.0,0.0,0.0,0.0,0.0,0.0,0.0,0.0,0.0,0.0,0.0,0.0,0.0,0.0,0.0,0.0,0.0,0.0,0.0,0.0,0.0,0.0,0.0,0.0,0.0,0.0,0.0,0.0,0.0,0.0,0.0,0.0,0.0,0.0,0.0,0.0,0.0,0.0,0.0,0.0,0.0,0.0,0.0,0.0,0.0,0.0,0.0,0.0,0.0,0.0,0.0,0.0,0.0,0.0,0.0,0.0,0.0,0.0,0.0,0.0,0.0,0.0,0.0,0.0,0.0,0.0,0.0,0.0,0.0,0.0,0.0,0.0,0.0,0.0,0.0,0.0,0.0,0.0,0.0,0.0,0.0,0.0,0.0,0.0,0.0,0.0,0.0,0.0,0.0,0.0,0.0,0.0,0.0,0.0,0.0,0.0,0.0,0.0,0.0,0.0,0.0,0.0,0.0,0.0,0.0,0.0,0.0,0.0,0.0,0.0,0.0,0.0,0.0,0.0,0.0,0.0,0.0,0.0,0.0,0.0,0.0,0.0,0.0,0.0,0.0,0.0,0.0,0.0,0.0,0.0,0.0,0.0,0.0,0.0,0.0,0.0,0.0,0.0,0.0,0.0,0.0,0.0,0.0,0.0,0.0,0.0,0.0,0.0,0.0,0.0,0.0,0.0,0.0,0.0,0.0,0.0,0.0,0.0,0.0,0.0,0.0,0.0,0.0,0.0,0.0,0.0
0.0026812404,0.0,0.0035827074,0.0,0.076859206,0.03438697,0.0,0.029381612,0.0,0.043455794,0.025076993,0.039574623,0.002621457,0.040428784,0.04218482,0.0,0.011373127,0.04816736,0.010285445,0.04399273,0.07065518,0.06762062,0.0,0.0,0.0,0.0,0.135669,0.035733115,0.0,0.0,0.03254585,0.006627746,0.027897961,0.012685973,0.0,0.035883572,0.014747125,0.032680485,0.0,0.0,0.041204482,0.0,0.011321258,0.0100017,0.07988462,0.0442686,0.0,0.027781554,0.03476542,0.045793038,0.0,0.005518765,0.011317678,0.0,0.016599992,0.0052698497,0.0056540314,0.0,0.040751882,0.0,0.07192901,0.00048561316,0.0,0.0,0.026254859,0.0,0.03932912,0.09932419,0.0,0.08489217,0.021779908,0.029706085,0.0,0.10478198,0.015068042,0.0,0.0,0.0059590186,0.00652954,0.02424058,0.045893863,0.019691993,0.07479736,0.008209307,0.0,0.032752696,0.101742506,0.09067075,0.0,0.0066864854,0.030150339,0.0,0.010459555,0.0,0.0,0.0,0.0048499634,0.0,0.0,0.0,0.06982647,0.02430005,0.068815984,0.06545819,0.05228193,0.1023216,0.07744497,0.0,0.023940224,0.055383116,0.0,0.015665302,0.0,0.005266294,0.023716409,0.0,0.077025235,0.0,0.0,0.0,0.07321358,0.109546095,0.0074564964,0.0014478415,0.0,0.035529554,0.043414164,0.08191718,0.0,0.0,0.0,0.0,0.0,0.042900607,0.006629713,0.019366223,0.050375104,0.013985207,0.06312844,0.0,0.0,0.0,0.0,0.0,0.09982189,0.0,0.119518295,0.0011146168,0.0024370626,0.095322914,0.066608176,0.056782015,0.0,0.0,0.0038616583,0.005756326,0.025020976,0.0054340283,0.050235584,0.08546215,0.061343513,0.03542398,0.01772992,0.10674898,0.06411969,0.08373351,0.058918722,0.048236534,0.13622272,0.044376597,0.0014027199,0.009913031,0.0,0.008358871,0.03265842,0.007352788,0.0018804026,0.06271899,0.008245549,0.016434548,0.0443852,0.0,0.00847965,0.0004005759,0.0,0.0,0.19803716,0.029481798,0.0,0.019308364,0.07647783,0.05318655,0.0415401,0.011583861,0.0,0.031261973,0.0,0.12543866,0.0828202,0.117470324,0.0379033,0.040836975,0.024837079,0.07956035,0.0,0.008193515,0.0,0.008299091,0.0007641333,0.0,0.0,0.051635064,0.040333934,0.02974609,0.0,0.0012364388,0.0,0.0,0.046688378,0.0,0.009349503,0.0,0.004085384,0.0,0.014405126,0.0011042804,0.056261532,0.06343147,0.0,0.0,0.0011585783,0.0,0.0,0.0,0.0,0.027816653,0.029029071,0.020467531,0.051401738,0.0085109845,0.030559108,0.018980771,0.0,0.029980808,0.04779589,0.04118348,0.013945304,0.0,0.012304917,0.0,0.002766394,0.020519849,0.019570488,0.0,0.0,0.0
0.0,0.0,0.009201082,0.0,0.0,0.044993006,0.0,0.04232725,0.0,0.033795703,0.008286174,0.032157257,0.04283664,0.0056166984,0.092026524,0.019360475,0.09584763,0.06397998,0.042849444,0.0,0.0,0.06704034,0.0,0.0,0.0,0.0,0.0,0.06921425,0.0,0.0,0.013394754,0.014744535,0.0,0.0,0.0052925386,0.033463113,0.0,0.0,0.0009612275,0.0,0.0,0.0,0.0014228392,0.0,0.081207074,0.03251028,0.0,0.0,0.04041404,0.03903869,0.0,0.06769188,0.02826202,0.0,0.030175883,0.044358365,0.041608077,0.0,0.021981489,0.0,0.0027729347,0.0,0.0,0.0,0.049330097,0.0,0.003470555,0.029881857,0.0,0.0,0.0,0.0,0.027990906,0.015166126,0.0,0.0,0.0,0.0,0.0,0.014689151,0.010672895,0.0,0.02358336,0.03455119,0.122308105,0.0,0.0,0.025982775,0.0,0.0,0.092029884,0.0,0.0,0.13715395,0.0,0.0,0.0,0.0,0.0,0.0,0.0,0.0,0.03714204,0.06713787,0.024073813,0.05964327,0.006053753,0.0,0.0,0.112930745,0.0,0.0,0.18170214,0.03505133,0.051563546,0.0,0.029976696,0.0,0.0,0.0,0.005504894,0.034121018,0.05239588,0.027522717,0.0,0.06741979,0.1282428,0.027673151,0.0,0.0,0.0,0.0,0.0,0.12255715,0.017214678,0.008834709,0.0825674,0.05982769,0.07791549,0.0,0.0,0.0,0.0,0.0,0.024988927,0.0,0.17533939,0.0,0.029521868,0.08995175,0.20403521,0.046856336,0.0,0.0,0.010780383,0.022981435,0.12148711,0.057540637,0.09699772,0.043710843,0.0,0.0,0.027439732,0.0,0.0,0.024530806,0.08192508,0.053414516,0.036874775,0.0005272329,0.0,0.0,0.0,0.010233959,0.0,0.008871138,0.017772898,0.085117444,0.001911711,0.0,0.070142806,0.012396995,0.0,0.0,0.018269861,0.0,0.019625166,0.029441282,0.0025666421,0.033344492,0.03181942,0.04692966,0.042774543,0.05240672,0.0,0.07477586,0.0,0.03184092,0.0096356915,0.01971835,0.07359453,0.09939264,0.04484882,0.0,0.0,0.05876113,0.0,0.017831646,0.07519644,0.08475307,0.0,0.0,0.07546365,0.040704153,0.0,0.024941249,0.0,0.0,0.011915803,0.0,0.06435764,0.0,0.0049979966,0.0,0.0,0.06617168,0.025517035,0.0562265,0.0,0.0,0.0029748743,0.0,0.0,0.0,0.0,0.05059454,0.003590961,0.13795176,0.07328206,0.071097165,0.031378455,0.017677657,0.0,0.057712853,0.0,0.10462992,0.005771513,0.0,0.0027498454,0.011452014,0.0,0.04097285,0.06057187,0.0,0.0,0.0
0.0,0.0,0.009201082,0.0,0.0,0.026940573,0.0,0.0254859,0.0,0.033795703,0.0334643,0.072981544,0.02674716,0.07430148,0.008158386,0.019360475,0.01804582,0.003196776,0.025145695,0.0,0.0,0.0729744,0.0,0.0,0.0,0.0,0.0,0.0006168171,0.0,0.0,0.06230117,0.078040615,0.0,0.0,0.022754155,0.0178596,0.0,0.0,0.0009612275,0.0,0.0,0.0,0.016495088,0.0,0.0690723,0.026916966,0.0,0.0,0.039499182,0.04386923,0.0,0.0521357,0.017803233,0.0,0.007626174,0.06779806,0.018981632,0.0,0.017986378,0.0,0.047522195,0.0,0.0,0.0,0.027078858,0.0,0.09010099,0.008339688,0.0,0.0,0.0,0.0,0.009363687,0.07074991,0.0,0.0,0.0,0.0,0.0,0.020854896,0.00017097592,0.0,0.001442954,0.03455119,0.040049076,0.0,0.0,0.033682615,0.0,0.0,0.032059014,0.0,0.0,0.016428031,0.0,0.0,0.0,0.0,0.0,0.0,0.0,0.0,0.041068032,0.024035607,0.039107315,0.026603464,0.0042088507,0.0,0.0,0.025732718,0.0,0.0,0.02649647,0.05963315,0.0015691184,0.0,0.03985712,0.0,0.0,0.0,0.05834714,0.030844156,0.0046105087,0.0027336143,0.0,0.055577546,0.05313114,0.031295743,0.090175584,0.0,0.0076820264,0.0,0.0,0.014520735,0.0,0.008834709,0.010272699,0.0,0.07791549,0.0,0.0,0.0,0.0,0.0,0.013849713,0.0,0.008842126,0.0,0.02881968,0.08995175,0.044768684,0.030871652,0.0,0.02399908,0.024172448,0.03387077,0.08154446,0.0,0.010615803,0.07821107,0.011976555,0.0,0.016399376,0.0,0.0,0.0012873262,0.020884175,0.021838129,0.06447453,0.0674864,0.0,0.0,0.0,0.016153026,0.0,0.010524869,0.043370742,0.00020199362,0.0368305,0.0,0.019959316,0.0087921135,0.004208356,0.0,0.003149665,0.0,0.010017914,0.101128116,0.0,0.04743743,0.03060505,0.06635833,0.02140592,0.09056256,0.0,0.0038491115,0.0,0.003969386,0.016203374,0.028275933,0.031868488,0.08946327,0.038925726,0.0,0.0,0.024270881,0.0,0.0013628602,0.0031638287,0.07193412,0.0,0.0,0.010412939,0.025154233,0.0,0.0080641825,0.0,0.0,0.027898699,0.0,0.06056578,0.0,0.018931786,0.0,0.0,0.06617168,0.009211678,0.0313851,0.0,0.0,0.01234926,0.0,0.0,0.0,0.0,0.05059454,0.014657787,0.010886257,0.009839214,0.10310457,0.02267772,0.022416845,0.0,0.06612079,0.015013863,0.0007088685,0.005771513,0.034188744,0.041605696,0.011452014,0.0,0.02787095,0.06815816,0.0,0.0,0.0
0.0,0.0004324481,0.0,0.0,0.015651746,0.0,0.0,0.10301834,0.0,0.014007246,0.051607016,0.015902102,0.07255247,0.0,0.14468357,0.01745931,0.044120222,0.058857277,0.12336806,0.0,0.0,0.004769191,0.0,0.0,0.0,0.0064502168,0.0,0.028577538,0.0,0.008841063,0.039161496,0.018666305,0.011609096,0.0,0.0069300923,0.009862356,0.016936151,0.0,0.0043266066,0.0,0.0087570315,0.0,0.0,0.01754637,0.049564324,0.025894418,0.0,0.009699133,0.07227835,0.057407092,0.0,0.04846874,0.03242787,0.0,0.046021946,0.022667618,0.057233736,0.0065229363,0.025440305,0.0,0.058347337,0.0,0.0,0.0,0.007198252,0.0,0.053031594,0.017585322,0.0,0.021268938,0.0,0.00740862,0.041940786,0.027784236,0.0,0.0,0.0,0.0,0.009941728,0.10470487,0.019173391,0.0,0.054567613,0.00021801516,0.0745148,0.0,0.0,0.0857986,0.0,0.038813345,0.06409715,0.0,0.0,0.01236093,0.0,0.0,0.0,0.0,0.0,0.0,0.0,0.0,0.047542274,0.049550377,0.017619602,0.017763965,0.010632883,0.0,0.010121699,0.005481936,0.0,0.00022391482,0.007134557,0.0082832575,0.041803025,0.0,0.015452981,0.0,0.0,0.0,0.068515144,0.026451875,0.044375345,0.09658189,0.0,0.045828868,0.05496464,0.08443289,0.014466971,0.0,0.0041186158,0.0,0.0,0.1296909,0.007693574,0.0075967005,0.009728041,0.0,0.017533137,0.0,0.0,0.0,0.021653658,0.0,0.06361507,0.0,0.029284,0.0,0.098206855,0.010247751,0.04518255,0.021650247,0.0,0.011115794,0.07980086,0.056399524,0.1054409,0.010027133,0.056713868,0.06960037,0.017504849,0.0,0.06942952,0.06334705,0.018866647,0.01501175,0.024188451,0.084410265,0.061450183,0.00600031,0.0,0.0,0.016153034,0.02751983,0.0,0.11525091,0.0009186709,0.023428487,0.013209078,0.0,0.027175382,0.019780451,0.0032819358,0.04475808,0.0013916587,0.0,0.046306323,0.07149842,0.0,0.016324647,0.030638268,0.030524408,0.050102152,0.015821625,0.0,0.08831319,0.0,0.057866286,0.0060815737,0.020757465,0.04218164,0.03832817,0.023289083,0.0061605205,0.0,0.042026088,0.0,0.009831525,0.0,0.041615967,0.0,0.0,0.04352721,0.038691208,0.0,0.052468,0.0,0.0,0.045429714,0.0,0.059311993,0.0,0.0314963,0.0,0.0,0.102565974,0.038471945,0.033819184,0.0,0.0,0.03351797,0.0,0.0,0.0,0.0,0.0,0.022206599,0.013459883,0.029756194,0.11001152,0.022649497,0.092700765,0.0,0.0929095,0.0048669763,0.039296288,0.006776612,0.04587249,0.02203384,0.0059229666,0.0,0.00705295,0.13994445,0.0,0.0,0.0
0.0,0.020418983,0.0,0.0,0.0,0.0,0.0,0.09161062,0.002901994,0.002576087,0.027716693,0.015126914,0.11028664,0.007849088,0.076890565,0.01745931,0.07676757,0.014978491,0.08164642,0.0,0.0,0.018832542,0.0,0.0,0.0,0.0,0.0,0.0056394115,0.0,0.013630663,0.01165539,0.057255156,0.011699118,0.0,0.0,0.023315191,0.060871653,0.0,0.0,0.0,0.0,0.0,0.0,0.002927836,0.066818185,0.012427539,0.0,0.0,0.03168827,0.011635507,0.0,0.029893184,0.017412838,0.0,0.0699298,0.020683384,0.027567353,0.0,0.020691466,0.0,0.117264494,0.0,0.0,0.0,0.016189914,0.0,0.012623206,0.039729387,0.0,0.021268938,0.0,0.03488595,0.010690572,0.071384974,0.0,0.0,0.0,0.0,0.009941728,0.04719705,0.047597453,0.0,0.026197992,0.030505577,0.021397736,0.0,0.0,0.07409989,0.0,0.06742809,0.088995054,0.0,0.0,0.09027375,0.0,0.0,0.0,0.0,0.0,0.0,0.0,0.0,0.07645975,0.029356,0.006608365,0.0071049742,0.010488724,0.0,0.015183226,0.14509505,0.0,0.0,0.05957286,0.028074734,0.0026501305,0.0,0.0061326325,0.0,0.0,0.0,0.068515144,0.024392586,0.035514817,0.13984302,0.0,0.017737437,0.10175869,0.0545113,0.023783933,0.0,0.0041186158,0.0,0.0,0.06417583,0.0016842727,0.024550332,0.003571055,0.0,0.03347908,0.0,0.0,0.0,0.023112323,0.0,0.054115783,0.0,0.07599473,0.0,0.08558101,0.023211064,0.04683423,0.02357629,0.0,0.0,0.028481454,0.10806484,0.10854232,0.024105884,0.09969258,0.029819936,0.0043715145,0.0,0.011494525,0.08104797,0.034753285,0.051254954,0.017332936,0.10261342,0.11804721,0.04399468,0.0,0.0,0.016153034,0.05384247,0.0,0.08341208,0.0009186709,0.026424067,0.0053963624,0.0,0.008690409,0.031348992,0.0,0.049957637,0.0013916587,0.0,0.017469296,0.09563787,0.0,0.064803265,0.0,0.04750657,0.06370744,0.0022724234,0.0,0.08079294,0.0,0.13203548,0.018684622,0.025275571,0.032223105,0.08719603,0.072055675,0.006236534,0.0,0.0026639588,0.0,0.030420847,0.0,0.1286596,0.0,0.0,0.076542065,0.03185978,0.0,0.00039272755,0.0,0.0,0.018646404,0.0,0.045523494,0.0,0.0,0.0,0.0,0.05428274,0.033913888,0.10353251,0.0,0.0,0.04352571,0.0,0.0,0.0,0.0,0.0,0.017176503,0.0,0.03553313,0.0963132,0.054504693,0.056845468,0.0,0.11950369,0.009963069,0.04653156,0.05709277,0.046400085,0.0669491,0.0065173036,0.0,0.0,0.06720383,0.0,0.0,0.0
0.16113359,0.009354411,0.025673842,0.0,0.0012986698,0.008007441,0.038835336,0.00504215,0.11809241,0.030177612,0.080708735,0.004998125,0.027866162,0.0,0.16868706,0.0,0.07261066,0.0,0.14044282,0.0306488,0.10751863,0.00022651856,0.0,0.0,0.0,0.008402053,0.00017106306,0.0027711208,0.0,0.0,0.06730557,0.008564293,0.0,4.737763e-06,0.026761357,0.07683206,0.063667804,0.019606674,0.003907457,0.009219508,0.0018889015,0.0016411621,0.04490465,0.057379887,0.06702077,0.0,0.009701248,0.007461434,0.055393774,0.00044941236,0.0,0.030401478,0.0,0.0,0.030542808,0.03146869,0.08211601,0.0,0.09894268,0.0656135,0.0,0.0,0.013363806,0.009298638,0.01084668,0.0,0.13295701,0.13362825,0.0,0.03257546,0.021330882,0.016846457,0.0,0.03726303,0.0044483677,0.03849115,0.0,0.024595171,0.05192171,0.04632069,0.04069345,0.0,0.0016563237,0.009291335,0.0016553617,0.0,0.0046164505,0.0057108197,0.0,0.0506285,0.025638126,0.010970921,0.0003951939,0.0005016394,0.0,0.0,0.054770388,0.0,0.0,0.0,0.04328554,0.0021376673,0.07759754,0.011335376,0.0077235326,0.018492341,0.0850983,0.0032634137,0.014300706,0.007035941,0.0,0.035503004,0.06217886,0.07820241,0.006344542,0.0,0.05956777,0.0058399774,0.04705697,0.01912076,0.0921465,0.05627187,0.04310806,0.0026008748,0.13032523,0.044184677,0.005992003,0.043296818,0.0034355114,0.0,0.09777583,0.0025873175,0.025992658,0.033756524,0.017832585,0.064879924,0.045720357,0.024201691,0.052070405,0.01805011,0.00082266715,0.0012534583,0.1026012,0.1098881,0.006142352,0.08728705,0.011512071,0.0,0.13307218,0.029610947,0.050573565,0.027488805,0.0,0.020101465,0.0012020944,0.048239417,0.009393882,0.0,0.05522962,0.00010546442,0.07665718,0.0,0.059005603,0.00812979,0.047896475,0.10507488,0.020426895,0.01185608,0.12837134,0.0055645406,0.00977812,0.003189266,0.1364194,0.0,0.00057345355,0.06358565,0.07439319,0.1220361,0.09526581,0.0024726747,0.06513966,0.00037943272,0.047038082,0.03269192,0.013424648,0.0,0.0024059005,0.015902124,0.0,0.077017605,0.0082875015,0.08119389,0.0031728875,0.011750288,0.0,0.037375126,0.065519966,0.009488553,0.07890466,0.020439444,0.13420239,0.012997497,0.0,0.03515275,0.0,0.0,0.09051823,0.032998264,0.0,0.08173186,0.0,0.0,0.06578923,0.049949516,0.0137301255,0.0264847,0.0,0.026595036,0.021995846,0.0,0.04579947,0.0396926,0.0020835241,0.0,0.034093626,0.034924712,0.02325081,0.0053573684,0.0,0.0,0.013407099,0.0,0.0,0.0,0.0,0.017497674,0.0045250994,0.038900986,0.07143997,0.030171406,0.008788042,0.08005765,0.038974606,0.2256819,0.0,0.027677152,0.031857774,0.0,0.11557409,0.0734254,0.0009768324,0.019246185,0.018735833,0.0,0.07032371,0.0050934004
0.020949038,0.025947576,0.00025169377,0.0,0.0012986698,0.008007441,0.00028250366,0.00504215,0.0049064383,0.021213237,0.032837227,0.034452885,0.038197413,0.0,0.029473156,0.0,0.016719744,0.0,0.0032826066,0.051147666,0.033114076,0.00022651856,0.0,0.0,0.0,0.020357167,0.00017106306,0.0027711208,0.0,0.0,0.012299359,0.045920968,0.0,4.737763e-06,0.0020322017,0.028655775,0.042349365,0.019606674,0.003907457,0.002578589,0.0018889015,0.0016411621,0.026204713,0.0021971487,0.13689205,0.0,0.113559976,0.014150703,0.032389674,0.00044941236,0.0,0.031286266,0.0,0.0,0.00028805062,0.0100857075,0.09808612,0.0,0.004020041,0.02667337,0.0,0.0,0.0010588153,0.009298638,0.001312554,0.0,0.026965514,0.027769946,0.0,0.090511896,0.0055102035,0.010986248,0.0,0.074560694,0.0044483677,0.042031877,0.0,0.02009555,0.04344337,0.012007743,0.0004709512,0.0,0.03093031,0.009291335,0.0016553617,0.0,0.05354985,0.01672453,0.0,0.0072550625,0.054720804,0.010970921,0.0003951939,0.0005016394,0.0,0.0,0.06515,0.0,0.0,0.0,0.015344987,0.0021376673,0.041548476,0.011335376,0.021846138,0.015967548,0.0044270735,0.0032634137,0.014300706,0.06790168,0.0,0.0499996,0.017978966,0.0065030903,0.10291747,0.0,0.019785672,0.025939614,0.0072784424,0.070096165,0.023893736,0.031748988,0.14969563,0.0014739473,0.071772695,0.029416636,0.010808848,0.09134458,0.0034355114,0.0,0.0075902827,0.0025873175,0.025992658,0.055746548,0.06013391,0.1039437,0.056075905,0.018739711,0.05322774,0.01805011,0.00082266715,0.041844077,0.045072433,0.0155250095,0.02846098,0.0034571216,0.023139104,0.0,0.018171787,0.014032036,0.06330961,0.065896064,0.0,0.09534189,0.0012020944,0.038432207,0.009393882,0.0,0.07348311,0.00010546442,0.0005061704,0.0,0.0037346333,0.00812979,0.009264281,0.031199008,0.020426895,0.016352847,0.07206397,0.0056732893,0.00977812,0.003189266,0.0033787123,0.0,0.00057345355,0.07242156,0.0,0.041227132,0.09526581,0.0024726747,0.047701538,0.00037943272,0.06408361,0.031000495,0.023114536,0.0,0.0024059005,0.03360582,0.0,0.079550266,0.0082875015,0.081565164,0.0031728875,0.009446867,0.0,0.001015556,0.023614466,0.007307455,0.038362134,0.056797534,0.03810757,0.05243389,0.0,0.03515275,0.0,0.0,0.0,0.022335202,0.0052849906,0.005495411,0.0,0.0,0.013462976,0.00954872,0.12756339,0.0264847,0.0,0.02123464,0.06563692,0.0,0.020443074,0.02335863,0.0020835241,0.0,0.034093626,0.0075882436,0.04700853,0.0475577,0.0,0.0,0.0,0.0,0.0,0.0,0.0,0.072475925,0.0045250994,0.06020377,0.109503955,0.032649912,0.023873191,0.014544278,0.008487862,0.018781817,0.0,0.019355547,0.026823772,0.0,0.0596008,0.023656253,0.0009768324,0.019246185,0.08208296,0.0,0.011629633,0.0050934004
0.0,0.0,0.0,0.0,0.0,0.0,0.0,0.0,0.0,0.0,0.0,0.0,0.0,0.0,0.0,0.0,0.0,0.0,0.0,0.0,0.0,0.0,0.0,0.0,0.0,0.0,0.0,0.0,0.0,0.0,0.0,0.0,0.0,0.0,0.0,0.0,0.0,0.0,0.0,0.0,0.0,0.0,0.0,0.0,0.0,0.0,0.0,0.0,0.0,0.0,0.0,0.0,0.0,0.0,0.0,0.0,0.0,0.0,0.0,0.0,0.0,0.0,0.0,0.0,0.0,0.0,0.0,0.0,0.0,0.0,0.0,0.0,0.0,0.0,0.0,0.0,0.0,0.0,0.0,0.0,0.0,0.0,0.0,0.0,0.0,0.0,0.0,0.0,0.0,0.0,0.0,0.0,0.0,0.0,0.0,0.0,0.0,0.0,0.0,0.0,0.0,0.0,0.0,0.0,0.0,0.0,0.0,0.0,0.0,0.0,0.0,0.0,0.0,0.0,0.0,0.0,0.0,0.0,0.0,0.0,0.0,0.0,0.0,0.0,0.0,0.0,0.0,0.0,0.0,0.0,0.0,0.0,0.0,0.0,0.0,0.0,0.0,0.0,0.0,0.0,0.0,0.0,0.0,0.0,0.0,0.0,0.0,0.0,0.0,0.0,0.0,0.0,0.0,0.0,0.0,0.0,0.0,0.0,0.0,0.0,0.0,0.0,0.0,0.0,0.0,0.0,0.0,0.0,0.0,0.0,0.0,0.0,0.0,0.0,0.0,0.0,0.0,0.0,0.0,0.0,0.0,0.0,0.0,0.0,0.0,0.0,0.0,0.0,0.0,0.0,0.0,0.0,0.0,0.0,0.0,0.0,0.0,0.0,0.0,0.0,0.0,0.0,0.0,0.0,0.0,0.0,0.0,0.0,0.0,0.0,0.0,0.0,0.0,0.0,0.0,0.0,0.0,0.0,0.0,0.0,0.0,0.0,0.0,0.0,0.0,0.0,0.0,0.0,0.0,0.0,0.0,0.0,0.0,0.0,0.0,0.0,0.0,0.0,0.0,0.0,0.0,0.0,0.0,0.0,0.0,0.0,0.0,0.0,0.0,0.0,0.0,0.0,0.0,0.0,0.0,0.0
0.013179211,0.0015226845,0.008493054,0.0,0.007765555,0.0070296936,0.009991821,0.004122758,0.03858334,0.0046686344,0.035874277,0.004707802,0.015053233,0.0,0.024879709,0.0,0.01702512,0.012928812,0.017166018,0.020026948,0.01272185,0.00022651856,0.0,0.0,0.0,0.03985268,0.00017106306,0.0091292495,0.0,0.0,0.028568223,0.018648222,0.0,0.002619777,0.0016434113,0.0068840533,0.036824,0.0049076965,0.0066028014,0.0064641973,0.00043164578,0.001393705,0.013197839,0.0004928971,0.018396884,0.0,0.00028978288,0.0057018977,0.03885595,0.00044941236,0.0,0.06108698,0.0007516868,0.0,0.026321938,0.006097259,0.0018445179,0.0,0.026868014,0.02142667,0.0,0.0,0.0005710714,0.006894187,0.015466005,0.0,0.028216004,0.024719939,0.0,0.0019033179,0.0103150355,0.0065311175,0.0,0.016899873,0.0065599405,0.011333244,0.0,0.01757859,0.0117274225,0.003043674,0.024222698,0.0,0.048551574,0.022699077,0.02379146,0.0,0.021299914,0.0027138665,0.0,0.004607111,0.0010727495,0.010393289,0.0003951939,0.0003244374,0.0,0.0,0.016054846,0.0,0.0,0.0,0.02167555,0.018822642,0.047832042,0.0022710152,0.04605642,0.046007216,0.008167371,0.0032634137,0.008638417,0.01131238,0.0,0.040103804,0.013124666,0.025897622,0.033162057,0.0,0.0067328326,0.018929124,0.002528347,0.0037218854,0.013707519,0.0007277839,0.022333771,0.0014739473,0.0588343,0.009843051,0.023057222,0.0035060942,0.0034355114,0.0,0.0065856236,0.012705069,0.015958074,0.038557656,0.016351163,0.022993155,0.024361033,0.014476279,0.038937647,0.0078111924,0.00082266715,0.007866815,0.010205738,0.00782777,0.030759707,0.029275987,0.01004678,0.0,0.020927787,0.015122406,0.012006797,0.0048866346,0.0,0.0068913307,0.004090235,0.015573356,0.034463942,0.0,0.039995626,0.004923912,0.0005061704,0.0,0.015134282,0.022637557,0.006098953,0.01031974,0.005813308,0.0073018745,0.031636164,0.009522386,0.00977812,0.003189266,0.0009161639,0.0,0.00057345355,0.023187637,0.00659853,0.06108109,0.008987278,0.0003723544,0.0034402385,0.008346043,0.006608565,0.009616464,0.033905353,0.0,0.0024059005,0.08249894,0.0,0.022135258,0.014791784,0.015057392,0.0036669108,0.01977197,0.0,0.0036887173,0.0052037053,0.035502866,0.015194342,0.03172493,0.010957219,0.020355072,0.0011936277,0.011977572,0.0,0.0,0.0011696385,0.041815497,0.0,0.03280902,0.0,0.0,0.03737694,0.015638497,0.0054396447,0.0020363554,0.0,0.008585153,0.020527754,0.0,0.015172252,0.018776573,0.0007434507,0.0,0.030260496,0.0022544065,0.037487213,0.0041119917,0.0,0.0,0.0010099129,0.0,0.0,0.0,0.0,0.016335055,0.011633642,0.013243046,0.043799043,0.01952926,0.012460761,0.00097019225,0.017227087,0.009390352,0.0,0.008094855,0.027959378,0.0,0.06391637,0.0006490052,0.002472319,0.018095268,0.0076240525,0.0,0.021364633,0.0050934004
0.049348965,0.01842317,0.0,0.0,0.0,0.0008349156,0.0,0.0029320116,0.028035533,0.030014183,0.024262536,0.022680968,0.056784496,0.077605754,0.006946303,0.0,0.012288934,0.0,0.106896974,0.035191327,0.023610055,0.03615438,0.0,0.0,0.016755082,0.002553287,0.0,0.0,0.0,0.0,0.12170021,0.024118006,0.0,0.0,0.03006265,0.009163491,0.044129103,0.021231927,0.0,0.0,0.052932154,0.0,0.05052886,0.00784518,0.0,0.0,0.0037392417,0.0,0.0012132209,0.0,0.0,0.043653592,0.0,0.0,0.020124214,0.032488015,0.03057535,0.0,0.07603703,0.00215572,0.0,0.0,0.00983017,0.013800719,0.014559712,0.0,0.08837379,0.0024540946,0.0,0.058103487,0.0,0.038223602,0.0,0.010440297,0.02205406,0.000616287,0.0,0.062213678,0.07498681,0.057022236,0.07506265,0.0,0.05297733,0.02933582,0.0016015596,0.0,0.010262914,0.006598484,0.0,0.026276607,0.01890742,0.008085422,0.0,0.0021325904,0.0,0.0,0.004635399,0.0,0.0,0.0,0.01540652,0.001962543,0.008259799,0.0007333865,0.015438434,0.060652055,0.021645173,0.0,0.0,0.123876736,0.0,0.0047564358,0.013699893,0.045513332,8.8609755e-05,0.0,0.09527373,0.003828674,0.00077431137,0.03794723,0.018819302,0.031425208,0.13714325,0.0,0.017390933,0.086997256,0.031320162,0.017439686,0.0,0.0,0.056866545,0.004478072,0.0053736945,0.0133808255,0.007274012,0.007522435,0.004303486,0.0632443,0.06510153,0.011550125,0.0,0.0,0.045531087,0.004775393,0.057774372,0.049301967,0.13030294,0.0,0.08908193,0.08019889,0.027344484,0.04170813,0.0,0.03384193,0.0,0.05859621,0.0147388065,0.0,0.09037677,0.0,0.0,0.0,0.037941195,0.046450906,0.0019316339,0.0056787394,0.024982423,0.037419356,0.09166349,0.0019571856,0.009194748,0.0,0.035562392,0.0,0.0,0.062483557,0.008377638,0.0011826825,0.0072585554,0.0019165346,0.016083125,0.0039552264,0.03570422,0.00016967162,0.039067302,0.0,0.018339586,0.03285353,0.0,0.08462588,0.004371735,0.037303112,0.0,0.008102681,0.0,0.066584416,0.022381328,0.060425334,0.0871705,0.03430307,0.028189354,0.032478467,0.0,0.0071874857,0.0,0.0,0.043684516,0.058796994,0.02766056,0.07865574,0.0,0.0,0.05047314,0.032077774,0.0,0.0051159207,0.0,0.021029286,0.0016084015,0.0,0.029420994,0.011021683,0.0021964316,0.0,0.04461607,0.013776149,0.017470216,0.03572857,0.0,0.0,0.0,0.004058074,0.0,0.0,0.0,0.05365976,0.019731523,0.04634623,0.018878266,0.00055044517,0.004172705,0.059819654,0.0,0.09908615,0.0,0.014056943,0.03690534,0.00096994644,0.00569652,0.014100869,0.00090016425,0.076443866,0.008349927,0.0,0.0,0.01770968
0.02089981,0.015727915,0.0,0.0,0.0,0.0090146195,0.0,0.0029320116,0.030950304,0.019552488,0.023099877,0.02520084,0.0011755936,0.026137017,0.03095422,0.0,0.03532465,0.008412678,0.035497256,0.006828394,0.043921284,0.0042690956,0.0,0.0,0.016755082,0.023968644,0.044706833,0.009344687,0.0,0.0,0.01673837,0.030116685,0.0,0.0,0.01488551,0.020693444,0.03735023,0.017743217,0.0,0.0,0.052932154,0.0,0.041783098,0.00784518,0.0,0.0,0.0037392417,0.0,0.01430331,0.0,0.0,0.040823124,0.0,0.0,0.009289694,0.023159556,0.04642167,0.0,0.028899785,0.006302675,0.0,0.0,0.0013154605,0.013800719,0.03697134,0.0,0.06649285,0.029545516,0.0,0.012312725,0.0,0.00538498,0.0,0.002131179,0.006222116,0.014829845,0.0,0.03449095,0.009552371,0.014553592,0.114367545,0.0,0.10357696,0.11146658,0.003607492,0.0,0.04923858,0.028529406,0.0,0.08803342,0.052372117,0.008085422,0.0,0.0021325904,0.0,0.0,0.0035040583,0.0,0.0,0.0,0.032908853,0.001962543,0.02384378,0.042941064,0.03184726,0.017842524,0.011651946,0.0,0.047934752,0.07189328,0.0,0.044371784,0.019958053,0.033708394,0.037026078,0.0,0.0061239935,0.007882355,0.0018096189,0.022902165,0.025744302,0.028523207,0.021524787,0.0,0.008867361,0.09133756,0.11019949,0.043978315,0.00048108047,0.0,0.008249456,0.004478072,0.0053736945,0.0051903725,0.014083798,0.0,0.008663041,0.015515847,0.016568199,0.010215279,0.0,0.0,0.025362536,0.03044422,0.018444061,0.05574407,0.017510295,0.0,0.005262241,0.04292774,0.102632076,0.038129363,0.0,0.03384193,0.02943253,0.026858814,0.0147388065,0.0,0.015661322,0.0,0.0,0.0,0.027665012,0.0081255715,0.0013588152,0.013887014,0.022946157,0.037419356,0.019582257,0.003665246,0.056816474,0.0030925656,0.0044977106,0.0,0.035567682,0.026628003,0.0026895404,0.080627784,0.0072585554,0.0017455544,0.052528147,0.008521842,0.0051189736,0.00016967162,0.028058125,0.0,0.07308805,0.072600946,0.0,0.052491568,0.012785979,0.024741871,0.00391855,0.061285425,0.0,0.00022403616,0.029366132,0.015340485,0.035883203,0.03226097,0.028138436,0.005290836,0.0,0.012836404,0.0,0.0,0.0,0.028476529,0.0075423797,0.07356498,0.0,0.031573143,0.0058963895,0.021463305,0.00034578555,0.008606233,0.0,0.046196014,0.07137126,0.0,0.04543503,0.011021683,0.0021964316,0.0,0.018007044,0.0011521436,0.058816638,0.0004691854,0.0,0.0,0.0,0.004058074,0.0,0.0,0.0,0.015990488,0.023872362,0.03772387,0.040951476,0.009979021,0.0012610615,0.04831037,0.0,0.012691565,0.0015912197,0.014056943,0.03382805,0.00096994644,0.025559455,0.008860072,0.00090016425,0.030506007,0.006094013,0.0,0.0,0.01770968
0.122202106,0.0044034896,0.0,0.0,0.0,0.0021527759,0.0,0.00031029552,0.0661374,0.021919109,0.04216551,0.07154427,0.037712857,0.0024383964,0.052887782,0.0,0.031993642,0.008653194,0.052734047,0.08419948,0.008207083,0.0,0.0,0.0,0.028394971,0.010499449,0.0020297028,0.0,0.0,0.0,0.0478068,0.0377224,0.0,0.0,0.02216189,0.016185917,0.060123242,0.014833616,0.0,0.00921647,0.050607726,0.0044693532,0.0048885047,0.018668223,0.0,0.0,0.0032430922,5.863095e-05,0.042363673,0.0,0.0,0.009518899,0.0,0.0,0.0010673044,0.029791908,0.016774744,0.0,0.021960884,0.008004701,0.0,0.0,0.0920119,0.012433629,0.018837184,0.0,0.0035382807,0.049845517,0.0,0.14193772,0.0,0.034149535,0.0,0.04655031,0.0037453696,0.020881932,0.0,0.009420872,0.1095462,0.028717205,0.046811815,0.0,0.039766774,0.002306804,0.0,0.0,0.03705643,0.026489224,0.0,0.06913334,0.040601566,0.0037037586,0.016497362,0.0028812876,1.2546051e-05,0.0,0.043840136,0.0,0.0015981846,0.0,0.008138758,0.002916327,0.0061065853,0.0032694433,0.028238142,0.055503473,0.0010314286,0.0,0.0019118786,0.029308632,0.0,0.014909137,0.017456692,0.082125284,0.035034843,0.0,0.013918959,0.040596187,0.02865566,0.021904152,0.021342453,0.016583577,0.0033733845,0.00020576327,0.07147961,0.0067253783,0.05620479,0.00685855,0.0,0.0,0.11193026,0.013730336,0.00877021,0.018276967,0.017581698,0.061143,0.008732169,0.08786728,0.032078348,0.0047156066,0.0,0.0,0.0026705973,0.016815478,0.012381591,0.055474203,0.099158004,0.0,0.060333095,0.103069045,0.019817945,0.06846612,0.0,0.0,0.0,0.07506344,0.018220183,0.0,0.03826516,0.0,0.008886104,0.0,0.06479116,0.024353407,0.0022937888,0.011575852,0.017460978,0.028675554,0.025730506,0.03538724,0.008485304,0.0,0.0019800924,0.003127201,0.0,0.011346757,0.0041297637,0.027975837,0.011460444,0.0,0.0074148774,0.02690968,0.0027991682,0.0030106977,0.0026851092,0.0,0.02093115,0.017557621,0.0,0.028752133,0.009784017,0.034912955,0.0,0.0349971,0.0,0.014536784,0.030102838,0.07590936,0.036752004,0.023296049,0.01500804,0.03212154,0.008124654,0.0049223825,0.0,0.0,0.009853724,0.072563976,0.0011443225,0.064545766,0.0,0.0,0.044854112,0.024216413,0.0,0.009336125,0.0,0.021457084,0.018423744,0.0,0.051547274,0.02839033,0.01262813,0.0,0.020284045,0.006348526,0.0033974182,0.03255739,0.0,0.0,0.0,0.0,0.0,0.0,0.0,0.012530133,0.011594565,0.020786565,0.013011023,0.02755747,0.024171535,0.04356029,0.0,0.04759144,0.00826101,0.0,0.02437897,0.028217297,0.035879552,0.0030005185,0.0,0.13009231,0.020106276,0.0,0.0077324403,0.034698345
0.056146406,0.0044034896,0.0,0.0,0.0,0.0021527759,0.0,0.00031029552,0.031072177,0.02975397,0.048823908,0.015336957,0.062474437,0.07644377,0.014971122,0.0,0.039007045,0.008653194,0.07052454,0.026943013,0.010069646,0.040423475,0.0,0.0,0.028394971,0.010499449,0.0020297028,0.0,0.0,0.0,0.013468519,0.016577639,0.0,0.0,0.018716604,0.014674753,0.038881823,0.026354136,0.0,0.00921647,0.050607726,0.0044693532,0.040170506,0.006960016,0.0,0.0,0.0032430922,5.863095e-05,0.015110133,0.0,0.0,0.010393128,0.0,0.0,0.0010673044,0.029791908,0.026119981,0.0,0.066246666,0.008004701,0.0,0.0,0.00133775,0.010857922,0.013884887,0.0,0.07954729,0.013344862,0.0,0.06454663,0.0,0.013628412,0.0,0.008064762,0.009097192,0.020881932,0.0,0.023521122,0.0712225,0.06784435,0.09864208,0.0,0.04765942,0.007417485,0.0,0.0,0.010502934,0.017527718,0.0,0.014190093,0.026992314,0.0037037586,0.016497362,0.0028812876,1.2546051e-05,0.0,0.02160101,0.0,0.0015981846,0.0,0.012481338,0.002916327,0.034192804,0.017702125,0.030995138,0.024270557,0.06524497,0.0,0.0019118786,0.115821466,0.0,0.034711275,0.020247076,0.0442501,0.023654997,0.0,0.050294437,0.014483348,0.0149485385,0.06625312,0.021062093,0.02527111,0.097729385,0.00020576327,0.0172316,0.06602527,0.047108658,0.0048070177,0.0,0.0,0.03786075,0.013730336,0.00877021,0.04331599,0.010301633,0.007383345,0.008732169,0.048626862,0.059700362,0.0050677434,0.0,0.0,0.040939443,0.02889294,0.05400525,0.0008518435,0.07543804,0.0,0.027382908,0.032909244,0.011374153,0.038435467,0.0,0.0,0.0,0.0386111,0.018220183,0.0,0.04694929,0.0,1.7828866e-05,0.0,0.0005503148,0.022097498,0.0022937888,0.0014854856,0.013115409,0.028675554,0.020465054,0.014247909,0.008485304,0.0,0.03121857,0.003127201,0.0,0.05066701,0.03563577,0.021367095,0.011460444,0.0,0.0135120265,0.032397497,0.020452853,0.0030106977,0.045115218,0.0,0.02093115,0.041049868,0.0,0.06282968,0.009784017,0.00920292,0.0,0.047344908,0.0,0.060740873,0.053084884,0.030585192,0.06022651,0.023439296,0.021879822,0.0032513142,0.008124654,0.010365436,0.0,0.0,0.03584414,0.0075870007,0.034058616,0.064545766,0.0,0.0,0.064954236,0.066645525,0.0,0.0026493957,0.0,0.019205987,0.03661815,0.0,0.021505348,0.02839033,0.01262813,0.0,0.03170071,0.0011287462,0.012311291,0.028091498,0.0,0.0,0.0,0.0,0.0,0.0,0.0,0.078864634,0.011594565,0.009591185,0.014968075,0.0019575693,0.00048255242,0.04209207,0.0,0.09551227,0.00826101,0.0,0.058905713,0.028217297,0.001678735,0.0030005185,0.0,0.05451265,0.013410697,0.0,0.0077324403,0.034698345
0.0,0.023351327,0.0,0.0,0.0,0.0039672125,0.0,0.025159374,0.019047473,0.0,0.041894644,0.074909195,0.0,0.0,0.18975283,0.0,0.11836262,0.014764826,0.05215656,0.0,0.06572962,0.0,0.0,0.0,0.0,0.06319539,0.0,0.021152144,0.0,0.0,0.03574548,0.0,0.015500147,0.0,0.07971619,0.10605255,0.0011809468,0.0,0.0,0.0,0.0,0.0,0.06446586,0.0,0.0018333495,0.0,0.0,0.0,0.040184572,0.07674509,0.0,0.0,0.0,0.0,0.0,0.043958865,0.09389832,0.0,0.049960278,0.053266004,0.035751123,0.0,0.0,0.0,0.027216192,0.0,0.03727579,0.113011055,0.0,0.07586613,0.0,0.029881313,0.0,0.006717736,0.01860102,0.07823753,0.0,0.0,0.0,0.038459405,0.07833464,0.0,0.005028015,0.10942417,0.0,0.0,0.0,0.06324546,0.0,0.0,0.017112006,0.0,0.0,0.0,0.0,0.0,0.0,0.0,0.0,0.0,0.0,0.08983624,0.045365155,0.06679273,0.041497204,0.03169077,0.0,0.0,0.004645646,0.0047004893,0.0,0.003106404,0.0,0.056344155,0.049532913,0.0,0.0065958574,0.0,0.0,0.0,0.0,0.0008115098,0.08975017,0.058144733,0.0,0.14053848,0.0928893,0.091702566,0.017796297,0.0,0.0,0.0,0.0,0.011302762,0.028579576,0.011023223,0.0,0.0,0.056278136,0.0798563,0.0,0.0,0.035049494,0.0,0.052171815,0.0,0.0698511,0.0,0.034073047,0.0027793357,0.12250761,0.06358933,0.0,0.0,0.003182456,0.027488012,0.17041744,0.056411866,0.0,0.07344526,0.16730638,0.0,0.040406622,0.0,0.04146871,0.029283661,0.032411672,0.0022760374,0.08368949,0.101052076,0.0,0.0,0.0,0.04224142,0.08907679,0.15014844,0.0,0.022839513,0.054225232,0.0,0.0006403923,0.018624585,0.0,0.056582112,0.0060345703,0.0,0.03722103,0.09317095,0.0,0.10223024,0.020719277,0.0,0.0,0.081032775,0.0,0.025676005,0.0,0.06366211,0.028318286,0.026363513,0.0,0.0705534,0.027910113,0.04241105,0.0,0.047341533,0.0,0.06801453,0.0,0.050875016,0.09780764,0.0,0.0085533485,0.058040164,0.0,0.075784355,0.0,0.0,0.048101,0.0,0.046036165,0.0,0.0,0.0,0.03374305,0.030838476,0.007263057,0.0,0.0,0.0,0.0,0.0,0.0,0.0,0.0,0.03469154,0.09525475,0.027494699,0.11097187,0.028156132,0.014631394,0.0058041513,0.0,0.13406634,0.018250357,0.011395909,0.0,0.0,0.040653437,0.0,0.0,0.027771723,0.06651231,0.0,0.0,0.0
0.0,0.01099716,0.0,0.0,0.0,0.0039672125,0.0,0.06143599,0.024682658,0.036234174,0.021473356,0.003586933,0.10214211,0.0,0.022701398,0.0,0.013591791,0.014764826,0.08179083,0.0,0.011756744,0.14623226,0.0,0.0,0.0,0.087941304,0.021199612,0.002914526,0.0,0.0,0.046497233,0.036359303,0.052529216,0.0,0.07971619,0.064379476,0.10098334,0.012967971,0.0,0.0,0.0,0.0,0.04368795,0.0,0.053898618,0.06827655,0.0,0.006106593,0.07606674,0.0036642551,0.0,0.0,0.0,0.0,0.0,0.06028944,0.09382131,0.0,0.050236832,0.13225347,0.064188495,0.0,0.0,0.0,0.0008605402,0.0,0.0056093335,0.14470202,0.0,0.0721646,0.0,0.022178665,0.0,0.05906347,0.01860102,0.0,0.0,0.0,0.0,0.052359678,0.15927607,0.035710085,0.016454997,0.059196986,0.0,0.0,0.0,0.06324546,0.0,0.006651037,0.03188151,0.0,0.0,0.0,0.0,0.0,0.0,0.0,0.0,0.0,0.021009855,0.028461915,0.056323454,0.019481657,0.0073418505,0.0055055097,0.0,0.0,0.13489133,0.049075454,0.0,0.0013495162,0.0,0.022346228,0.008992422,0.0,0.052490085,0.0,0.0,0.0,0.070972934,0.09098653,0.09787771,0.027164064,0.0,0.07009812,0.08661067,0.10841358,0.017796297,0.0,0.0,0.0,0.0,0.015678808,0.04682947,0.032267414,0.0070474627,0.0,0.056278136,0.0,0.0,0.0,0.035049494,0.0,0.0020599551,0.0,0.0022650808,0.0,0.10473677,0.0027793357,0.06191767,0.14597517,0.0,0.0,0.06037708,0.038982242,0.016482806,0.064131595,0.014085774,0.07655375,0.16730638,0.021992067,0.034758978,0.0052150404,0.100733854,0.022429626,0.10232099,0.13499512,0.12495407,0.123357415,0.0020475173,0.0,0.0,0.04224142,0.04608234,0.086623296,0.0,0.033297755,0.11405334,0.0,0.05794558,0.0026675398,0.0,0.058200616,0.0060345703,0.0,0.07519272,0.0113150105,0.0,0.0035762351,0.048869804,0.00055326975,0.0,0.006573202,0.0,0.025676005,0.0,0.039903358,0.043255724,0.014797663,0.0,0.019117042,0.06341951,0.029837847,0.0,0.0077134147,0.0,0.009020001,0.0,0.050875016,0.09780764,0.020227183,0.07029269,0.12284817,0.0,0.019900765,0.0,0.0,0.06581489,0.0,0.045250226,0.0,0.0,0.0,0.05522963,0.09806693,0.09185543,0.0,0.0,0.0,0.015779052,0.0,0.0,0.0,0.0,0.04750123,0.026255224,0.07360097,0.10029373,0.03206936,0.04819685,0.08729349,0.0,0.11911419,0.024832891,0.050048254,0.00046578902,0.0,0.09238248,0.0,0.0,0.022232492,0.102493465,0.0,0.0,0.016677363
0.108915195,0.077600956,0.00966118,0.0,0.0,0.06024792,0.0,0.070234835,0.0,0.0043068174,0.016360637,0.0014356226,0.03895854,0.04735574,0.21152848,0.0,0.036598727,0.04921651,0.07812536,0.12562199,0.1343639,0.041757543,0.0,0.0,0.0,0.04252236,0.0,0.0,0.0,0.0,0.062118795,0.030034766,0.026770148,0.0,0.02877494,0.042901214,0.05474464,0.033978302,0.0,0.0,0.0,0.0,0.027356649,0.0,0.04248584,0.09938971,0.0,0.0,0.0,0.09938905,0.0,0.0,0.0,0.0,0.0,0.01765671,0.042728983,0.0,0.07240252,0.029991794,0.037200026,0.0,0.02154628,0.0,0.019014511,0.0,0.070066646,0.05851248,0.0,0.0,0.036399864,0.0033001378,0.0,0.040299498,0.0,0.0,0.0,0.0,0.089605406,0.049906418,0.0045004487,0.0,0.06324895,0.046586525,0.0,0.0,0.0,0.10762804,0.0,0.04947994,0.04621751,0.0,0.0,0.0,0.0,0.0,0.0,0.0,0.0,0.0,0.05369464,0.0,0.0,0.06795203,0.05511774,0.030350141,0.0,0.0,0.043095425,0.10562652,0.0,0.081350565,0.0,0.17403688,0.029190686,0.0,0.029849827,0.0,0.0,0.009633126,0.074559286,0.08100472,0.038435876,0.009575915,0.0,0.05278699,0.07427723,0.061667487,0.05436812,0.0,0.0,0.0,0.0,0.062243752,0.004141465,0.037597723,0.15494756,0.0,0.0016482668,0.0,0.0,0.0,0.0,0.0,0.0020642485,0.0,0.090251476,0.0,0.039041795,0.06107445,0.059491783,0.015772402,0.0,0.0,0.023349613,0.02542282,0.06078575,0.047274217,0.02544299,0.08192166,0.044058405,0.0,0.10488988,0.047439568,0.056711067,0.0045260172,0.07214566,0.028323539,0.0028214827,0.017069228,0.0,0.0,0.0,0.02230496,0.0,0.09890853,0.03241908,0.0046143346,0.045282815,0.0,0.00079787074,0.0,0.037776116,0.014957948,0.0075138807,0.0,0.04214537,0.018915474,0.0,0.0,0.017593103,0.0047940034,0.0,0.084199235,0.0,0.08464444,0.0,0.104701184,0.015276007,0.009019017,0.06151677,0.08310137,0.03439621,0.097557336,0.0,0.065651804,0.0,0.022534784,0.0,0.0,0.05531825,0.095957026,0.02638878,0.0043760315,0.01219704,0.015657233,0.0,0.0,0.03431236,0.0,0.030955486,0.0,0.0,0.0,0.07876136,0.1260651,0.054009736,0.016852913,0.0,0.0,0.0,0.0,0.0,0.0,0.0,0.031665318,0.02736522,0.02200605,0.023234397,0.014124557,0.00314793,0.039239153,0.0,0.111120485,0.15715884,0.05197756,0.0,0.0,0.056186996,0.0,0.0,0.0,0.068138346,0.0,0.0,0.0
0.108915195,0.018671928,0.0,0.0,0.006757524,0.02108306,0.0,0.044323005,0.021705322,0.018865956,0.037696347,0.03794676,0.018515833,0.03896893,0.19193976,0.0,0.017556738,0.023272038,0.057194725,0.12562199,0.21790883,0.05476725,0.0,0.0,0.0,0.0039089555,0.0,0.0034373486,0.0,0.0,0.10225785,0.015666418,0.014620444,0.0,0.08794533,0.022196999,0.019795269,0.04588451,0.0,0.0,0.0,0.015879963,0.03742905,0.012405492,0.12146835,0.052650187,0.0,0.028084328,0.058880754,0.15375167,0.0,0.0,0.0,0.0,0.0,0.008564606,0.08112857,0.0,0.097890705,0.058490086,0.031041864,0.0,0.02154628,0.0,0.021591831,0.0,0.08329566,0.08495188,0.0,0.017905552,0.04644893,0.026933081,0.0,0.03645011,0.011437592,0.0,0.0,0.006533402,0.08768563,0.050807945,0.09413052,6.9138405e-05,0.05655763,0.017188597,0.0,0.0,0.00040623496,0.0793429,0.0,0.04329735,0.017974723,0.0,0.0,0.0,0.0,0.0,0.0,0.0,0.0,0.0,0.033620656,0.048954777,0.025972774,0.08622473,0.06917691,0.07890489,0.015560104,0.0,0.07450121,0.04228221,0.0,0.055468466,0.0,0.1386774,0.03294499,0.0,0.020011634,0.0,0.0,0.0,0.01872794,0.040963516,0.044249088,0.05691,0.0,0.12269035,0.047159582,0.06390394,0.06590023,0.0,0.0,0.0,0.0,0.027495183,0.047581818,0.03894895,0.14692803,0.0,0.028787225,0.01042262,0.0,0.0,0.0,0.0,0.001905337,0.0,0.057654843,0.0,0.02800978,0.06942466,0.027100235,0.043357994,0.0,0.00855199,0.005535707,0.019473096,0.003234018,0.02008733,0.0051620286,0.016530417,0.05105815,0.00040966127,0.087981135,0.025044996,0.018278794,0.0061220266,0.048220366,0.019794539,0.04034765,0.017456427,0.0,0.0,0.0,0.004205917,0.054687195,0.034193497,0.03241908,0.030029174,0.035924133,0.0,0.06477127,0.0,0.037776116,0.010100294,0.0018643234,0.0,0.09382264,0.103941545,0.0,0.0075887274,0.033587474,0.0029662624,0.0,0.014754446,0.0,0.091999896,0.0,0.09109521,0.106900364,0.03404199,0.07350591,0.09199332,0.007698793,0.1421699,0.0,0.04884787,0.0,0.0055409633,0.0,0.0,0.05531825,0.095957026,0.006802574,0.006438799,0.0066350996,0.13641044,0.0,0.0,0.02239342,0.0,0.061348893,0.0,0.0,0.0,0.08358453,0.11024907,0.04297045,0.013272234,0.0,0.0,0.024628818,0.0,0.0,0.0,0.0,0.0558624,0.07790877,0.01595331,0.03673894,0.007618889,0.055771753,0.007922448,0.0,0.18829863,0.1315213,0.00223279,0.04396028,0.0,0.12015691,0.0,0.0,0.055663407,0.072688766,0.0,0.0,0.0
0.015651563,0.0,0.020165429,0.0,0.024703113,0.0,0.019062273,0.062097907,0.08973381,0.036056817,0.055261776,0.08264263,0.0310556,0.009680356,0.09258638,0.0,0.058687225,0.069925666,0.017731845,0.023595594,0.059470423,0.06046088,0.0,0.0,0.0,0.025435977,0.0,0.03393348,0.0,0.0,0.0063796192,0.06061589,0.0,0.0,0.0010109922,0.16784126,0.036371436,0.012355838,0.009994769,0.016348522,0.0,0.0,0.0,0.0,0.034896538,0.0,0.0040953355,0.0,0.0386616,0.0,0.0,0.028050361,0.0,0.0,0.017263403,0.004256835,0.0465767,0.0,0.05624269,0.008874668,0.031210646,0.0,0.07047977,0.03729933,0.03559856,0.0,0.063269265,0.01837711,0.0,0.0026261508,0.030750562,0.054071784,0.0,0.02562179,0.026500337,0.07483478,0.0,0.04092211,0.052719526,0.041696385,0.007868468,0.0,0.025401592,0.0065907165,0.04470192,0.0,0.0039174757,0.02359517,0.0,0.041811943,0.022625927,0.0,0.0,0.0,0.0,0.0,0.0057800016,0.0,0.0,0.0,0.015527593,0.0,0.034663517,0.012576813,0.058131993,0.13784283,0.101202674,0.004897296,0.0,0.026585907,0.0,0.06969504,0.0,0.032187648,0.0408732,0.0,0.080488995,0.091499254,0.010383334,0.022496838,0.052740276,0.071127325,0.035360023,0.0,0.044121914,0.10744179,0.25285053,0.036098637,0.0,0.0,0.0,0.0,0.04115224,0.063399136,0.089514606,0.0408821,0.0005069673,0.0,0.009098908,0.056282483,0.023938011,0.0,0.040616527,0.10829954,0.0,0.0,0.026755102,0.0,0.005049944,0.07814253,0.017585196,0.0,0.0,0.027944598,0.01862364,0.003498368,0.024743086,0.03784135,0.03509696,0.0076822154,0.02786557,0.0,0.056291416,0.049272843,0.06782029,0.026008466,0.010670848,0.0,0.058532555,0.05636258,0.0,0.0,0.0,0.113368124,0.0,0.10026179,0.040986616,0.022117432,0.07670221,0.029424494,0.0111269895,0.00053476077,0.0018178765,0.07051155,0.0023221634,0.0,0.0,0.015007377,0.0,0.004582789,0.046345595,0.048645627,0.013638229,0.0,0.0,0.01115521,0.0370307,0.0057612103,0.039436277,0.012747403,0.052247353,0.120015636,0.0472576,0.029080205,0.0,0.0,0.0,0.09940768,0.07730132,0.00091358274,0.030818712,0.0,0.039849345,0.021619849,0.0,0.05472368,0.0,0.019408282,0.002515331,0.0,0.016281232,0.034207154,0.0,0.0,0.015258843,0.0016133673,0.0133054955,0.0051338356,0.0,0.0,0.0,0.0,0.009673756,0.0,0.0,0.0,0.0,0.12567192,0.13966222,0.019918963,0.042102885,0.061102524,0.0133585995,0.036301468,0.0,0.0,0.0,0.0,0.009595558,0.0,0.0,0.036115676,0.0814159,0.0,0.0,0.0
0.0,0.0,0.009104975,0.0,0.024703113,0.0,0.019062273,0.092202105,0.020618958,0.0,0.081689544,0.16334796,0.003603642,0.068843916,0.11103358,0.0,0.03621027,0.054627478,0.043726005,0.037636124,0.19340712,0.038355038,0.0,0.0,0.0,0.025716241,0.0,0.0,0.0,0.0,0.05021579,0.046337858,0.008606578,0.0,0.1801027,0.057752416,0.07172344,0.012355838,0.0,0.016348522,0.0,0.0,0.0,0.0,0.052897766,0.0,0.036500346,0.0,0.01578913,0.0,0.0,0.0,0.0,0.0,0.0,0.0,0.013424439,0.0,0.08376038,0.0,0.031210646,0.0,0.051881682,0.024603505,0.017368466,0.0,0.01048477,0.021042466,0.0,0.05981419,0.018361308,0.04456114,0.0,0.11782724,0.02676605,0.013350055,0.0,0.022851523,0.0,0.10425217,0.007868468,0.0,0.06944512,0.04299476,0.04470192,0.0,0.0039174757,0.044916302,0.0,0.04587312,0.02359625,0.0,0.0,0.0,0.0,0.0,0.0,0.0,0.0,0.0,0.022682006,0.0,0.03920224,0.016541539,0.13040972,0.07940939,0.08299147,0.06532692,0.0,0.0724274,0.0,0.03600139,0.0,0.03319037,0.01565282,0.0,0.051901042,0.091499254,0.0,0.0,0.002917664,0.07533727,0.10295805,0.0,0.07438786,0.0014714822,0.008175121,0.16733542,0.0,0.0,0.0,0.0,0.0,0.0671664,0.034829214,0.07790422,0.059679087,0.0,0.032633904,0.04734488,0.023938011,0.0,0.0,0.14658383,0.014240175,0.0,0.016269147,0.0,0.10236442,0.0024564941,0.047739975,0.0,0.0,0.033194073,0.016926823,0.0551244,0.04103927,7.53738e-05,0.082098186,0.04151873,0.07314041,0.0,0.049138114,0.035028934,0.06782029,0.033652168,0.04433582,0.0,0.006265243,0.051405936,0.0,0.0,0.0,0.009031318,0.0,0.09670749,0.019887526,0.0,0.01879095,0.041065983,0.0,0.00053476077,0.10569768,0.007985363,0.016617928,0.0,0.0,0.04656805,0.0,0.056728035,0.037188176,0.02304047,0.013638229,0.0,0.0,0.027829546,0.052141044,0.0,0.019876592,0.02025849,0.0,0.048060983,0.029062275,0.0046128742,0.0,0.0,0.0,0.12623659,0.002371491,0.040227503,0.02994943,0.0,0.19480062,0.049967535,0.0,0.0,0.0,0.00540141,0.047456637,0.0,0.0001285784,0.007794018,0.0,0.0,0.0042418125,0.056481063,0.022360317,0.02403212,0.0,0.0,0.0,0.0,0.009673756,0.0,0.0,0.0,0.0,0.122323625,0.19971202,0.004520245,0.03554103,0.0735773,0.0,0.18136331,0.0,0.022122864,0.0,0.0,0.081549436,0.0,0.0,0.07499198,0.0,0.0,0.0,0.0
0.0,0.0,0.0029966533,0.0,0.024703113,0.0,0.019062273,0.06611638,0.013045846,0.023311779,0.081689544,0.05844322,0.061493,0.064610705,0.11103358,0.0,0.022224702,0.002769962,0.122622095,0.041145068,0.23835906,0.04296852,0.0,0.0,0.0,0.026124015,0.0,0.0,0.0,0.0,0.027974248,0.06549892,0.0,0.0,0.089867905,0.017190821,0.07561325,0.012355838,0.0,0.016348522,0.0,0.0,0.0,0.0,0.09541258,0.0,0.013774247,0.0,0.11052089,0.0,0.0,0.0,0.0,0.0,0.0,0.066605575,0.05641771,0.0,0.13482061,0.0,0.031210646,0.0,0.029566837,0.024603505,0.025240287,0.0,0.14185447,0.107364565,0.0,0.05981419,0.018361308,0.09206414,0.0,0.08815552,0.011022215,0.0036716945,0.0,0.022851523,0.0,0.070495605,0.007868468,0.0,0.09048171,0.11347272,0.04470192,0.0,0.0039174757,0.044916302,0.0,0.052175045,0.04841353,0.0,0.0,0.0,0.0,0.0,0.0040078047,0.0,0.0,0.0,0.022682006,0.0,0.028563958,0.063583665,0.11770218,0.11224326,0.08407315,0.04935626,0.0,0.16322874,0.0,0.06698756,0.0,0.042495012,0.041293535,0.0,0.0028559193,0.0725844,0.0,0.0,0.07969635,0.12495574,0.14184742,0.0,0.07438786,0.03864339,0.10437758,0.037869453,0.040176626,0.0,0.11892565,0.0,0.0,0.14240007,0.031382695,0.07790422,0.0019367039,0.0,0.021211725,0.03665135,0.023938011,0.0,0.11531135,0.11041811,0.0,0.0,0.12587611,0.0,0.16703023,0.109477706,0.07703626,0.0,0.0,0.033194073,0.055893704,0.061011292,0.04103927,0.09289558,0.01599513,0.0076822154,0.04802574,0.0,0.12338585,0.10036482,0.06782029,0.0235691,0.005392149,0.0,0.0071607954,0.06999379,0.0,0.0,0.0,0.049645722,0.0,0.0155994,0.011913154,0.0,0.01879095,0.05589831,0.0,0.00053476077,0.06494421,0.007985363,0.019907929,0.0,0.0,0.108953856,0.0,0.056728035,0.04041662,0.022045556,0.013638229,0.034033857,0.0,0.070093066,0.052141044,0.0,0.0058899745,0.0449141,0.020279385,0.09608465,0.02652863,0.053935498,0.0,0.070262894,0.0,0.102597564,0.002371491,0.027691755,0.20283611,0.0,0.13118899,0.14673656,0.0,0.025443178,0.0,0.060801458,0.07460341,0.0,0.029750861,0.013537836,0.0,0.0,0.008062784,0.10848902,0.10688605,0.055011284,0.0,0.0,0.0,0.0,0.009673756,0.0,0.0,0.0,0.0,0.09725238,0.11802803,0.028465152,0.0025932454,0.016612297,0.0,0.22136499,0.02676269,0.0,0.0,0.07652194,0.1400164,0.0,0.0,0.065508485,0.087438665,0.0,0.0,0.0
0.0,0.0,0.021236807,0.0,0.024703113,0.042369485,0.019062273,0.06854629,0.013045846,0.10120316,0.081689544,0.13358258,0.018725915,0.006651151,0.11103358,0.0,0.0028795525,0.03915947,0.1476965,0.027969293,0.21785411,0.016550444,0.0,0.0,0.0,0.042603336,0.0,0.0,0.0,0.0,0.06367665,0.12571685,0.0,0.0,0.15852486,0.057752416,0.02434669,0.012355838,0.0,0.016348522,0.0,0.0,0.0,0.0,0.11338362,0.0,0.013774247,0.0,0.01578913,0.0,0.0,0.0,0.0,0.0,0.0,0.0,0.016106326,0.047872845,0.15330644,0.0,0.026683081,0.0,0.116435416,0.024603505,0.035873026,0.0,0.14185447,0.08415271,0.0,0.05981419,0.018361308,0.11558249,0.0,0.054875027,0.0031322995,0.013350055,0.0,0.022851523,0.0,0.07917874,0.007868468,0.0,0.11226834,0.11347272,0.04470192,0.0,0.0039174757,0.044916302,0.0,0.034010023,0.04841353,0.0,0.0,0.0,0.0,0.0,0.0,0.0,0.0,0.0,0.022682006,0.0,0.015228811,0.010330981,0.20171091,0.17758168,0.060146376,0.070399314,0.0,0.16322874,0.0,0.021854937,0.0,0.00727991,0.022579402,0.0,0.0019898787,0.091499254,0.0,0.0,0.002917664,0.11979838,0.14019828,0.0,0.07438786,0.035880677,0.058630474,0.07912878,0.0,0.0,0.09355609,0.0,0.0,0.096426025,0.016498461,0.052073527,0.01668343,0.0,0.037864815,0.096157566,0.023938011,0.0,0.0,0.12556493,0.0,0.0,0.088638835,0.0,0.058584005,0.11282312,0.07286191,0.0,0.0,0.033194073,0.0,0.061011292,0.04103927,0.03784135,0.18095681,0.0076822154,0.11134708,0.0,0.019477844,0.085464574,0.006743096,0.033652168,0.00015763566,0.0,0.006265243,0.063605934,0.0,0.0,0.0,0.044675536,0.0,0.039637655,0.01711505,0.0,0.01879095,0.020880457,0.0,0.00053476077,0.0018544598,0.007985363,0.020574374,0.0,0.0,0.10074951,0.0,0.056728035,0.0157258,0.035989873,0.013638229,0.05516797,0.0,0.045989543,0.052141044,0.0,0.00089153275,0.034650475,0.0,0.09780882,0.021994542,0.053935498,0.0,0.0,0.0,0.13223064,0.002371491,0.018555135,0.17488998,0.0,0.18091266,0.13831893,0.0,0.023691919,0.0,0.025851212,0.03443475,0.0,0.034562945,0.013537836,0.0,0.0,0.0042418125,0.11192697,0.10956043,0.025624115,0.0,0.0,0.0,0.0,0.009673756,0.0,0.0,0.0,0.0004498735,0.12675563,0.12396325,0.047010414,0.013130888,0.016612297,0.0,0.2395595,0.035967346,0.11532372,0.014598863,0.0,0.116793446,0.0,0.0,0.07499198,0.0,0.0,0.0,0.0
0.014513579,0.0,0.0,0.0,0.09634216,0.0,0.0,0.014800527,0.05374416,0.14994292,0.09233196,0.03840007,0.04383547,0.022720754,0.017160293,0.0,0.05456929,0.033787206,0.02452328,0.0022602596,0.01946956,0.04096559,0.0,0.0,0.0,0.0,0.0,0.0,0.0,0.0,0.019265387,0.021789394,0.0,0.0,0.0037944538,0.02752544,0.07182884,0.008967433,0.0,0.0,0.084886305,0.0,0.03237611,0.0,0.03571263,0.07320605,0.0,0.014146887,0.09376525,0.19447263,0.0,0.0026957728,0.0,0.0,0.0,0.08905296,0.010276993,0.0,0.06627311,0.05482834,0.059130184,0.0,0.0,0.0,0.007057331,0.0,0.021760717,0.035344645,0.0,0.027942613,0.0013829935,0.04676249,0.0,0.0727262,0.012195719,0.040439636,0.0,0.0,0.012434529,0.09256764,0.072079465,0.042192094,0.016193952,0.14046007,0.0,0.0,0.0,0.003659804,0.0,0.016098157,0.030004457,0.0,0.0,0.0,0.0,0.0,0.0,0.0,0.0,0.0,0.013725654,0.10784268,0.16045983,0.014230127,0.061291657,0.014375713,0.03370752,0.0,0.029993314,0.009676397,0.0,0.04430622,0.0,0.035815433,0.012263708,0.0,0.03824094,0.0,0.03332015,0.0,0.001438316,0.035623394,0.026881993,0.042940274,0.0,0.041901283,0.0354971,0.07107049,0.013665581,0.0,0.023964562,0.0,0.0,0.024347052,0.046646472,0.0042765224,0.0055390233,0.0,0.07701009,0.0,0.0,0.0,0.008922602,0.0,0.015336305,0.0,0.009303644,0.014694415,0.0022733547,0.0,0.03215547,0.0670681,0.0,0.0,0.108360894,0.070312925,0.027517855,0.012894846,0.012355351,0.0043914467,0.05335976,0.0,0.051609464,0.036112968,0.008230934,0.051254306,0.038536802,0.009813987,0.011183508,0.007176794,0.0050792214,0.010086767,0.0,0.03696342,0.029520527,0.014752639,0.0,0.032978117,0.059758916,0.008565079,0.052373864,0.025455227,0.0,0.049861398,0.0,0.0,0.03595654,0.008042581,0.0,0.058685917,0.009454725,0.025168026,0.011936901,0.038043834,0.0,0.03134938,0.0,0.02082397,0.013605654,0.06583972,0.0,0.069762245,0.062058825,0.07042669,0.0,0.054879062,0.0,0.021216843,0.0,0.0,0.018686531,0.0,0.01501032,0.03945917,0.0,0.017717078,0.0,0.0,0.10242671,0.0014639905,0.06756728,0.0,0.0045024566,0.0,0.023461401,0.0072663426,0.07325308,0.02213116,0.0,0.0,0.0,0.0,0.0,0.0,0.0,0.05906355,0.00081191957,0.07654587,0.047385268,0.074240535,0.08016649,0.038645133,0.0,0.07271358,0.08875064,0.03675373,0.0,0.0,0.019400202,0.0,0.0,0.04662267,0.018504228,0.0,0.0,0.0
0.05294263,0.0,0.0,0.0,0.012234441,0.0,0.0,0.014800527,0.040444016,0.025301643,0.09007766,0.024822056,0.0588037,0.09472601,0.07318603,0.0,0.10271704,0.1117811,0.09225192,0.0022602596,0.12294233,0.09610966,0.0,0.0,0.0,0.0,0.058101524,0.0,0.0,0.0,0.07774693,0.13600671,0.0,0.036715172,0.050982747,0.05038756,0.07182884,0.008967433,0.0,0.0,0.084886305,0.0,0.036045603,0.065361276,0.097877145,0.03027327,0.0,0.014146887,0.047376297,0.12046857,0.0,0.05780778,0.0,0.0,0.0,0.08905296,0.010276993,0.0,0.15229362,0.05482834,0.044671915,0.025957178,0.0,0.0,0.007057331,0.0,0.056411307,0.1509148,0.0,0.027942613,0.0013829935,0.04676249,0.0,0.02343687,0.012195719,0.040439636,0.0,0.0,0.012434529,0.10218372,0.018069744,0.14143153,0.021495167,0.04204486,0.0,0.0,0.0,0.073620595,0.0,0.008069555,0.030004457,0.0,0.0,0.0,0.0,0.0,0.0,0.0,0.0,0.0,0.013725654,0.10784268,0.12853703,0.09490316,0.011234492,0.05663717,0.03698542,0.0,0.040928517,0.15463917,0.0,0.04430622,0.0,0.055821225,0.004353486,0.0,0.06435332,0.0,0.06434266,0.0,0.039119225,0.035623394,0.25980428,0.0374435,0.0,0.03643827,0.05366502,0.0122760385,0.013665581,0.0,0.023964562,0.0,0.0,0.0030987114,0.0799977,0.0042765224,0.034156386,0.0,0.045479886,0.0,0.0,0.0,0.0,0.0,0.008767873,0.0,0.17349125,0.03296515,0.084380075,0.106988594,0.03226182,0.008706912,0.0,0.0,0.08246962,0.06531733,0.027517855,0.012894846,0.029940948,0.08914018,0.05335976,0.0,0.014088955,0.006304674,0.019394124,0.06719499,0.011976697,0.08506422,0.12330491,0.004809037,0.0050792214,0.010086767,0.0,0.015508669,0.15784627,0.054635517,0.0,0.13251288,0.059758916,0.005686879,0.008799783,0.0,0.0,0.049861398,0.0,0.0,0.062577456,0.0139296055,0.0,0.058685917,0.020676756,0.016131975,0.011936901,0.058571965,0.0,0.00093340315,0.0,0.023511201,0.06836049,0.00015821308,0.0,0.026531555,0.0,0.12540795,0.0,0.054879062,0.0,0.021216843,0.0,0.0,0.018686531,0.0,0.05914727,0.0028675422,0.0,0.008459419,0.0,0.0,0.014103398,0.0014639905,0.0853612,0.0,0.0,0.0,0.025329534,0.011995068,0.05159849,0.044634387,0.0,0.0,0.019257475,0.0,0.0,0.0,0.0,0.10557951,0.06106498,0.07654587,0.11336755,0.06845174,0.06413799,0.12065121,0.0,0.16077942,0.0067472905,0.034145437,0.0,0.0,0.016235538,0.0,0.0,0.00092117675,0.018504228,0.0,0.0,0.0
0.014513579,0.0,0.0,0.0,0.0009946572,0.0,0.0,0.014800527,0.05374416,0.14587173,0.027783658,0.020748973,0.028910736,0.03874376,0.07318603,0.0,0.018641846,0.097573556,0.08547094,0.0022602596,0.06332356,0.022643536,0.0,0.0,0.0,0.0,0.0,0.0,0.0,0.0,0.004505109,0.004000239,0.0,0.0,0.012366449,0.008982703,0.05332611,0.008967433,0.0,0.0,0.071836874,0.0,0.022729717,0.0,0.0054923296,0.04449814,0.0,0.014146887,0.047376297,0.0013433024,0.0,0.008083091,0.0,0.0,0.0,0.058927834,0.010276993,0.0,0.017602488,0.05482834,0.034966394,0.040606458,0.0,0.0,0.007057331,0.0,0.040880933,0.031341255,0.0,0.027942613,0.0013829935,0.043823585,0.0,0.034950864,0.012195719,0.040439636,0.0,0.0,0.012434529,0.065878235,0.05871904,0.0017488152,0.025792573,0.10172373,0.0,0.0,0.0,0.003659804,0.0,0.016098157,0.033989616,0.0,0.0,0.0,0.0,0.0,0.0,0.0,0.0,0.0,0.013725654,0.10784268,0.051683158,0.04889485,0.023657978,0.013187058,0.0010976177,0.0,0.0103817005,0.11349469,0.0,0.0014456175,0.0,0.07632814,0.029725928,0.0,0.08301259,0.0,0.007623014,0.0,0.037267353,0.035623394,0.055381343,0.012886695,0.0,0.019474804,0.15241507,0.09458512,0.019771604,0.0,0.023964562,0.0,0.0,0.007434368,0.012695279,0.0042765224,0.0055390233,0.0,0.06645252,0.0,0.0,0.0,0.0,0.0,0.051629107,0.0,0.05929984,0.10596345,0.044696663,0.0,0.12871145,0.0049073845,0.0,0.0,0.098316014,0.00989023,0.027517855,0.0470547,0.0674675,0.014600098,0.05335976,0.0,0.058758367,0.039485298,0.013070995,0.025330722,0.02783566,0.012655444,0.025553904,0.04981249,0.0050792214,0.010086767,0.0,0.003811514,0.08968357,0.002509809,0.0,0.03371068,0.0065161884,0.012839543,0.0074879685,0.0,0.0,0.049861398,0.0,0.0,0.041957058,0.10992196,0.0,0.04155641,0.0045739263,0.020325184,0.011936901,0.038043834,0.0,0.03134938,0.0,0.10679845,0.019222252,0.03913018,0.0,0.08307941,0.0034981633,0.10306835,0.0,0.054879062,0.0,0.014733367,0.0,0.0,0.018686531,0.0,0.05426821,0.007944718,0.0,0.011426717,0.0,0.0,0.070824996,0.0014639905,0.11765738,0.0,0.0,0.0,0.025329534,0.03279501,0.045568734,0.017756417,0.0,0.0,0.0,0.0,0.0,0.0,0.0,0.01550732,0.009992197,0.026601553,0.027240798,0.07945757,0.020528734,0.06395603,0.0,0.040272743,0.003025867,0.05369286,0.0,0.0,0.025443569,0.0,0.0,0.0026468937,0.018504228,0.0,0.0,0.0
0.0,0.0,0.0,0.0,0.0,0.0,0.0,0.0,0.0,0.0,0.0,0.0,0.0,0.0,0.0,0.0,0.0,0.0,0.0,0.0,0.0,0.0,0.0,0.0,0.0,0.0,0.0,0.0,0.0,0.0,0.0,0.0,0.0,0.0,0.0,0.0,0.0,0.0,0.0,0.0,0.0,0.0,0.0,0.0,0.0,0.0,0.0,0.0,0.0,0.0,0.0,0.0,0.0,0.0,0.0,0.0,0.0,0.0,0.0,0.0,0.0,0.0,0.0,0.0,0.0,0.0,0.0,0.0,0.0,0.0,0.0,0.0,0.0,0.0,0.0,0.0,0.0,0.0,0.0,0.0,0.0,0.0,0.0,0.0,0.0,0.0,0.0,0.0,0.0,0.0,0.0,0.0,0.0,0.0,0.0,0.0,0.0,0.0,0.0,0.0,0.0,0.0,0.0,0.0,0.0,0.0,0.0,0.0,0.0,0.0,0.0,0.0,0.0,0.0,0.0,0.0,0.0,0.0,0.0,0.0,0.0,0.0,0.0,0.0,0.0,0.0,0.0,0.0,0.0,0.0,0.0,0.0,0.0,0.0,0.0,0.0,0.0,0.0,0.0,0.0,0.0,0.0,0.0,0.0,0.0,0.0,0.0,0.0,0.0,0.0,0.0,0.0,0.0,0.0,0.0,0.0,0.0,0.0,0.0,0.0,0.0,0.0,0.0,0.0,0.0,0.0,0.0,0.0,0.0,0.0,0.0,0.0,0.0,0.0,0.0,0.0,0.0,0.0,0.0,0.0,0.0,0.0,0.0,0.0,0.0,0.0,0.0,0.0,0.0,0.0,0.0,0.0,0.0,0.0,0.0,0.0,0.0,0.0,0.0,0.0,0.0,0.0,0.0,0.0,0.0,0.0,0.0,0.0,0.0,0.0,0.0,0.0,0.0,0.0,0.0,0.0,0.0,0.0,0.0,0.0,0.0,0.0,0.0,0.0,0.0,0.0,0.0,0.0,0.0,0.0,0.0,0.0,0.0,0.0,0.0,0.0,0.0,0.0,0.0,0.0,0.0,0.0,0.0,0.0,0.0,0.0,0.0,0.0,0.0,0.0,0.0,0.0,0.0,0.0,0.0,0.0
